\relax 
\@writefile{toc}{\contentsline {section}{\numberline {1}Core Elements of Controls Systems}{1}{}\protected@file@percent }
\@writefile{toc}{\contentsline {section}{\numberline {2}First Order Systems}{1}{}\protected@file@percent }
\gdef \@abspage@last{1}
