%!PS-Adobe-3.0 EPSF-3.0
%%Creator: (MATLAB, The Mathworks, Inc. Version 9.10.0.1739362 \(R2021a\) Update 5. Operating System: Linux)
%%Title: ./question1Answer.eps
%%CreationDate: 2021-11-16T16:07:52
%%Pages: (atend)
%%BoundingBox:    20     6   387   304
%%LanguageLevel: 3
%%EndComments
%%BeginProlog
%%BeginResource: procset (Apache XML Graphics Std ProcSet) 1.2 0
%%Version: 1.2 0
%%Copyright: (Copyright 2001-2003,2010 The Apache Software Foundation. License terms: http://www.apache.org/licenses/LICENSE-2.0)
/bd{bind def}bind def
/ld{load def}bd
/GR/grestore ld
/GS/gsave ld
/RM/rmoveto ld
/C/curveto ld
/t/show ld
/L/lineto ld
/ML/setmiterlimit ld
/CT/concat ld
/f/fill ld
/N/newpath ld
/S/stroke ld
/CC/setcmykcolor ld
/A/ashow ld
/cp/closepath ld
/RC/setrgbcolor ld
/LJ/setlinejoin ld
/GC/setgray ld
/LW/setlinewidth ld
/M/moveto ld
/re {4 2 roll M
1 index 0 rlineto
0 exch rlineto
neg 0 rlineto
cp } bd
/_ctm matrix def
/_tm matrix def
/BT { _ctm currentmatrix pop matrix _tm copy pop 0 0 moveto } bd
/ET { _ctm setmatrix } bd
/iTm { _ctm setmatrix _tm concat } bd
/Tm { _tm astore pop iTm 0 0 moveto } bd
/ux 0.0 def
/uy 0.0 def
/F {
  /Tp exch def
  /Tf exch def
  Tf findfont Tp scalefont setfont
  /cf Tf def  /cs Tp def
} bd
/ULS {currentpoint /uy exch def /ux exch def} bd
/ULE {
  /Tcx currentpoint pop def
  gsave
  newpath
  cf findfont cs scalefont dup
  /FontMatrix get 0 get /Ts exch def /FontInfo get dup
  /UnderlinePosition get Ts mul /To exch def
  /UnderlineThickness get Ts mul /Tt exch def
  ux uy To add moveto  Tcx uy To add lineto
  Tt setlinewidth stroke
  grestore
} bd
/OLE {
  /Tcx currentpoint pop def
  gsave
  newpath
  cf findfont cs scalefont dup
  /FontMatrix get 0 get /Ts exch def /FontInfo get dup
  /UnderlinePosition get Ts mul /To exch def
  /UnderlineThickness get Ts mul /Tt exch def
  ux uy To add cs add moveto Tcx uy To add cs add lineto
  Tt setlinewidth stroke
  grestore
} bd
/SOE {
  /Tcx currentpoint pop def
  gsave
  newpath
  cf findfont cs scalefont dup
  /FontMatrix get 0 get /Ts exch def /FontInfo get dup
  /UnderlinePosition get Ts mul /To exch def
  /UnderlineThickness get Ts mul /Tt exch def
  ux uy To add cs 10 mul 26 idiv add moveto Tcx uy To add cs 10 mul 26 idiv add lineto
  Tt setlinewidth stroke
  grestore
} bd
/QT {
/Y22 exch store
/X22 exch store
/Y21 exch store
/X21 exch store
currentpoint
/Y21 load 2 mul add 3 div exch
/X21 load 2 mul add 3 div exch
/X21 load 2 mul /X22 load add 3 div
/Y21 load 2 mul /Y22 load add 3 div
/X22 load /Y22 load curveto
} bd
/SSPD {
dup length /d exch dict def
{
/v exch def
/k exch def
currentpagedevice k known {
/cpdv currentpagedevice k get def
v cpdv ne {
/upd false def
/nullv v type /nulltype eq def
/nullcpdv cpdv type /nulltype eq def
nullv nullcpdv or
{
/upd true def
} {
/sametype v type cpdv type eq def
sametype {
v type /arraytype eq {
/vlen v length def
/cpdvlen cpdv length def
vlen cpdvlen eq {
0 1 vlen 1 sub {
/i exch def
/obj v i get def
/cpdobj cpdv i get def
obj cpdobj ne {
/upd true def
exit
} if
} for
} {
/upd true def
} ifelse
} {
v type /dicttype eq {
v {
/dv exch def
/dk exch def
/cpddv cpdv dk get def
dv cpddv ne {
/upd true def
exit
} if
} forall
} {
/upd true def
} ifelse
} ifelse
} if
} ifelse
upd true eq {
d k v put
} if
} if
} if
} forall
d length 0 gt {
d setpagedevice
} if
} bd
/RE { % /NewFontName [NewEncodingArray] /FontName RE -
  findfont dup length dict begin
  {
    1 index /FID ne
    {def} {pop pop} ifelse
  } forall
  /Encoding exch def
  /FontName 1 index def
  currentdict definefont pop
  end
} bind def
%%EndResource
%%BeginResource: procset (Apache XML Graphics EPS ProcSet) 1.0 0
%%Version: 1.0 0
%%Copyright: (Copyright 2002-2003 The Apache Software Foundation. License terms: http://www.apache.org/licenses/LICENSE-2.0)
/BeginEPSF { %def
/b4_Inc_state save def         % Save state for cleanup
/dict_count countdictstack def % Count objects on dict stack
/op_count count 1 sub def      % Count objects on operand stack
userdict begin                 % Push userdict on dict stack
/showpage { } def              % Redefine showpage, { } = null proc
0 setgray 0 setlinecap         % Prepare graphics state
1 setlinewidth 0 setlinejoin
10 setmiterlimit [ ] 0 setdash newpath
/languagelevel where           % If level not equal to 1 then
{pop languagelevel             % set strokeadjust and
1 ne                           % overprint to their defaults.
{false setstrokeadjust false setoverprint
} if
} if
} bd
/EndEPSF { %def
count op_count sub {pop} repeat            % Clean up stacks
countdictstack dict_count sub {end} repeat
b4_Inc_state restore
} bd
%%EndResource
%FOPBeginFontDict
%%IncludeResource: font Courier-Oblique
%%IncludeResource: font Courier-BoldOblique
%%IncludeResource: font Courier-Bold
%%IncludeResource: font ZapfDingbats
%%IncludeResource: font Symbol
%%IncludeResource: font Helvetica
%%IncludeResource: font Helvetica-Oblique
%%IncludeResource: font Helvetica-Bold
%%IncludeResource: font Helvetica-BoldOblique
%%IncludeResource: font Times-Roman
%%IncludeResource: font Times-Italic
%%IncludeResource: font Times-Bold
%%IncludeResource: font Times-BoldItalic
%%IncludeResource: font Courier
%FOPEndFontDict
%%BeginResource: encoding WinAnsiEncoding
/WinAnsiEncoding [
/.notdef /.notdef /.notdef /.notdef /.notdef
/.notdef /.notdef /.notdef /.notdef /.notdef
/.notdef /.notdef /.notdef /.notdef /.notdef
/.notdef /.notdef /.notdef /.notdef /.notdef
/.notdef /.notdef /.notdef /.notdef /.notdef
/.notdef /.notdef /.notdef /.notdef /.notdef
/.notdef /.notdef /space /exclam /quotedbl
/numbersign /dollar /percent /ampersand /quotesingle
/parenleft /parenright /asterisk /plus /comma
/hyphen /period /slash /zero /one
/two /three /four /five /six
/seven /eight /nine /colon /semicolon
/less /equal /greater /question /at
/A /B /C /D /E
/F /G /H /I /J
/K /L /M /N /O
/P /Q /R /S /T
/U /V /W /X /Y
/Z /bracketleft /backslash /bracketright /asciicircum
/underscore /quoteleft /a /b /c
/d /e /f /g /h
/i /j /k /l /m
/n /o /p /q /r
/s /t /u /v /w
/x /y /z /braceleft /bar
/braceright /asciitilde /bullet /Euro /bullet
/quotesinglbase /florin /quotedblbase /ellipsis /dagger
/daggerdbl /circumflex /perthousand /Scaron /guilsinglleft
/OE /bullet /Zcaron /bullet /bullet
/quoteleft /quoteright /quotedblleft /quotedblright /bullet
/endash /emdash /asciitilde /trademark /scaron
/guilsinglright /oe /bullet /zcaron /Ydieresis
/space /exclamdown /cent /sterling /currency
/yen /brokenbar /section /dieresis /copyright
/ordfeminine /guillemotleft /logicalnot /sfthyphen /registered
/macron /degree /plusminus /twosuperior /threesuperior
/acute /mu /paragraph /middot /cedilla
/onesuperior /ordmasculine /guillemotright /onequarter /onehalf
/threequarters /questiondown /Agrave /Aacute /Acircumflex
/Atilde /Adieresis /Aring /AE /Ccedilla
/Egrave /Eacute /Ecircumflex /Edieresis /Igrave
/Iacute /Icircumflex /Idieresis /Eth /Ntilde
/Ograve /Oacute /Ocircumflex /Otilde /Odieresis
/multiply /Oslash /Ugrave /Uacute /Ucircumflex
/Udieresis /Yacute /Thorn /germandbls /agrave
/aacute /acircumflex /atilde /adieresis /aring
/ae /ccedilla /egrave /eacute /ecircumflex
/edieresis /igrave /iacute /icircumflex /idieresis
/eth /ntilde /ograve /oacute /ocircumflex
/otilde /odieresis /divide /oslash /ugrave
/uacute /ucircumflex /udieresis /yacute /thorn
/ydieresis
] def
%%EndResource
%FOPBeginFontReencode
/Courier-Oblique findfont
dup length dict begin
  {1 index /FID ne {def} {pop pop} ifelse} forall
  /Encoding WinAnsiEncoding def
  currentdict
end
/Courier-Oblique exch definefont pop
/Courier-BoldOblique findfont
dup length dict begin
  {1 index /FID ne {def} {pop pop} ifelse} forall
  /Encoding WinAnsiEncoding def
  currentdict
end
/Courier-BoldOblique exch definefont pop
/Courier-Bold findfont
dup length dict begin
  {1 index /FID ne {def} {pop pop} ifelse} forall
  /Encoding WinAnsiEncoding def
  currentdict
end
/Courier-Bold exch definefont pop
/Helvetica findfont
dup length dict begin
  {1 index /FID ne {def} {pop pop} ifelse} forall
  /Encoding WinAnsiEncoding def
  currentdict
end
/Helvetica exch definefont pop
/Helvetica-Oblique findfont
dup length dict begin
  {1 index /FID ne {def} {pop pop} ifelse} forall
  /Encoding WinAnsiEncoding def
  currentdict
end
/Helvetica-Oblique exch definefont pop
/Helvetica-Bold findfont
dup length dict begin
  {1 index /FID ne {def} {pop pop} ifelse} forall
  /Encoding WinAnsiEncoding def
  currentdict
end
/Helvetica-Bold exch definefont pop
/Helvetica-BoldOblique findfont
dup length dict begin
  {1 index /FID ne {def} {pop pop} ifelse} forall
  /Encoding WinAnsiEncoding def
  currentdict
end
/Helvetica-BoldOblique exch definefont pop
/Times-Roman findfont
dup length dict begin
  {1 index /FID ne {def} {pop pop} ifelse} forall
  /Encoding WinAnsiEncoding def
  currentdict
end
/Times-Roman exch definefont pop
/Times-Italic findfont
dup length dict begin
  {1 index /FID ne {def} {pop pop} ifelse} forall
  /Encoding WinAnsiEncoding def
  currentdict
end
/Times-Italic exch definefont pop
/Times-Bold findfont
dup length dict begin
  {1 index /FID ne {def} {pop pop} ifelse} forall
  /Encoding WinAnsiEncoding def
  currentdict
end
/Times-Bold exch definefont pop
/Times-BoldItalic findfont
dup length dict begin
  {1 index /FID ne {def} {pop pop} ifelse} forall
  /Encoding WinAnsiEncoding def
  currentdict
end
/Times-BoldItalic exch definefont pop
/Courier findfont
dup length dict begin
  {1 index /FID ne {def} {pop pop} ifelse} forall
  /Encoding WinAnsiEncoding def
  currentdict
end
/Courier exch definefont pop
%FOPEndFontReencode
%%EndProlog
%%Page: 1 1
%%PageBoundingBox: 0 0 420 315
%%BeginPageSetup
[1 0 0 -1 0 315] CT
%%EndPageSetup
GS
[0.45 0 0 0.45 0 0] CT
1 GC
N
0 0 933 700 re
f
GR
GS
[0.45 0 0 0.45 0 0] CT
1 GC
N
121 623 M
844 623 L
844 52 L
121 52 L
cp
f
GR
GS
[0.45 0 0 0.45 0 0] CT
0.873 GC
1 LJ
1.111 LW
N
121 623 M
121 52 L
S
GR
GS
[0.45 0 0 0.45 0 0] CT
0.873 GC
1 LJ
1.111 LW
N
241.5 623 M
241.5 52 L
S
GR
GS
[0.45 0 0 0.45 0 0] CT
0.873 GC
1 LJ
1.111 LW
N
362 623 M
362 52 L
S
GR
GS
[0.45 0 0 0.45 0 0] CT
0.873 GC
1 LJ
1.111 LW
N
482.5 623 M
482.5 52 L
S
GR
GS
[0.45 0 0 0.45 0 0] CT
0.873 GC
1 LJ
1.111 LW
N
603 623 M
603 52 L
S
GR
GS
[0.45 0 0 0.45 0 0] CT
0.873 GC
1 LJ
1.111 LW
N
723.5 623 M
723.5 52 L
S
GR
GS
[0.45 0 0 0.45 0 0] CT
0.873 GC
1 LJ
1.111 LW
N
844 623 M
844 52 L
S
GR
GS
[0.45 0 0 0.45 0 0] CT
0.873 GC
1 LJ
1.111 LW
N
844 623 M
121 623 L
S
GR
GS
[0.45 0 0 0.45 0 0] CT
0.873 GC
1 LJ
1.111 LW
N
844 559.556 M
121 559.556 L
S
GR
GS
[0.45 0 0 0.45 0 0] CT
0.873 GC
1 LJ
1.111 LW
N
844 496.111 M
121 496.111 L
S
GR
GS
[0.45 0 0 0.45 0 0] CT
0.873 GC
1 LJ
1.111 LW
N
844 432.667 M
121 432.667 L
S
GR
GS
[0.45 0 0 0.45 0 0] CT
0.873 GC
1 LJ
1.111 LW
N
844 369.222 M
121 369.222 L
S
GR
GS
[0.45 0 0 0.45 0 0] CT
0.873 GC
1 LJ
1.111 LW
N
844 305.778 M
121 305.778 L
S
GR
GS
[0.45 0 0 0.45 0 0] CT
0.873 GC
1 LJ
1.111 LW
N
844 242.333 M
121 242.333 L
S
GR
GS
[0.45 0 0 0.45 0 0] CT
0.873 GC
1 LJ
1.111 LW
N
844 178.889 M
121 178.889 L
S
GR
GS
[0.45 0 0 0.45 0 0] CT
0.873 GC
1 LJ
1.111 LW
N
844 115.444 M
121 115.444 L
S
GR
GS
[0.45 0 0 0.45 0 0] CT
0.873 GC
1 LJ
1.111 LW
N
844 52 M
121 52 L
S
GR
GS
[0.45 0 0 0.45 0 0] CT
0.149 GC
2 setlinecap
1 LJ
1.111 LW
N
121 623 M
844 623 L
S
GR
GS
[0.45 0 0 0.45 0 0] CT
0.149 GC
2 setlinecap
1 LJ
1.111 LW
N
121 52 M
844 52 L
S
GR
GS
[0.45 0 0 0.45 0 0] CT
0.149 GC
2 setlinecap
1 LJ
1.111 LW
N
121 623 M
121 615.77 L
S
GR
GS
[0.45 0 0 0.45 0 0] CT
0.149 GC
2 setlinecap
1 LJ
1.111 LW
N
241.5 623 M
241.5 615.77 L
S
GR
GS
[0.45 0 0 0.45 0 0] CT
0.149 GC
2 setlinecap
1 LJ
1.111 LW
N
362 623 M
362 615.77 L
S
GR
GS
[0.45 0 0 0.45 0 0] CT
0.149 GC
2 setlinecap
1 LJ
1.111 LW
N
482.5 623 M
482.5 615.77 L
S
GR
GS
[0.45 0 0 0.45 0 0] CT
0.149 GC
2 setlinecap
1 LJ
1.111 LW
N
603 623 M
603 615.77 L
S
GR
GS
[0.45 0 0 0.45 0 0] CT
0.149 GC
2 setlinecap
1 LJ
1.111 LW
N
723.5 623 M
723.5 615.77 L
S
GR
GS
[0.45 0 0 0.45 0 0] CT
0.149 GC
2 setlinecap
1 LJ
1.111 LW
N
844 623 M
844 615.77 L
S
GR
GS
[0.45 0 0 0.45 0 0] CT
0.149 GC
2 setlinecap
1 LJ
1.111 LW
N
121 52 M
121 59.23 L
S
GR
GS
[0.45 0 0 0.45 0 0] CT
0.149 GC
2 setlinecap
1 LJ
1.111 LW
N
241.5 52 M
241.5 59.23 L
S
GR
GS
[0.45 0 0 0.45 0 0] CT
0.149 GC
2 setlinecap
1 LJ
1.111 LW
N
362 52 M
362 59.23 L
S
GR
GS
[0.45 0 0 0.45 0 0] CT
0.149 GC
2 setlinecap
1 LJ
1.111 LW
N
482.5 52 M
482.5 59.23 L
S
GR
GS
[0.45 0 0 0.45 0 0] CT
0.149 GC
2 setlinecap
1 LJ
1.111 LW
N
603 52 M
603 59.23 L
S
GR
GS
[0.45 0 0 0.45 0 0] CT
0.149 GC
2 setlinecap
1 LJ
1.111 LW
N
723.5 52 M
723.5 59.23 L
S
GR
GS
[0.45 0 0 0.45 0 0] CT
0.149 GC
2 setlinecap
1 LJ
1.111 LW
N
844 52 M
844 59.23 L
S
GR
GS
[0.45 0 0 0.45 54.45 284.35001] CT
0.149 GC
/Helvetica 22.222 F
GS
[1 0 0 1 0 0] CT
-18 21 moveto 
1 -1 scale
(0.1) t 
GR
GR
GS
[0.45 0 0 0.45 108.675 284.35001] CT
0.149 GC
/Helvetica 22.222 F
GS
[1 0 0 1 0 0] CT
-18 21 moveto 
1 -1 scale
(0.2) t 
GR
GR
GS
[0.45 0 0 0.45 162.9 284.35001] CT
0.149 GC
/Helvetica 22.222 F
GS
[1 0 0 1 0 0] CT
-18 21 moveto 
1 -1 scale
(0.3) t 
GR
GR
GS
[0.45 0 0 0.45 217.125 284.35001] CT
0.149 GC
/Helvetica 22.222 F
GS
[1 0 0 1 0 0] CT
-18 21 moveto 
1 -1 scale
(0.4) t 
GR
GR
GS
[0.45 0 0 0.45 271.35 284.35001] CT
0.149 GC
/Helvetica 22.222 F
GS
[1 0 0 1 0 0] CT
-18 21 moveto 
1 -1 scale
(0.5) t 
GR
GR
GS
[0.45 0 0 0.45 325.575 284.35001] CT
0.149 GC
/Helvetica 22.222 F
GS
[1 0 0 1 0 0] CT
-18 21 moveto 
1 -1 scale
(0.6) t 
GR
GR
GS
[0.45 0 0 0.45 379.80001 284.35001] CT
0.149 GC
/Helvetica 22.222 F
GS
[1 0 0 1 0 0] CT
-18 21 moveto 
1 -1 scale
(0.7) t 
GR
GR
GS
[0.45 0 0 0.45 217.12515 297.49999] CT
0.149 GC
/Helvetica 24.444 F
GS
[1 0 0 1 0 0] CT
-26.5 23 moveto 
1 -1 scale
(zeta) t 
GR
GR
GS
[0.45 0 0 0.45 0 0] CT
0.149 GC
2 setlinecap
1 LJ
1.111 LW
N
121 623 M
121 52 L
S
GR
GS
[0.45 0 0 0.45 0 0] CT
0.149 GC
2 setlinecap
1 LJ
1.111 LW
N
844 623 M
844 52 L
S
GR
GS
[0.45 0 0 0.45 0 0] CT
0.149 GC
2 setlinecap
1 LJ
1.111 LW
N
121 623 M
128.23 623 L
S
GR
GS
[0.45 0 0 0.45 0 0] CT
0.149 GC
2 setlinecap
1 LJ
1.111 LW
N
121 559.556 M
128.23 559.556 L
S
GR
GS
[0.45 0 0 0.45 0 0] CT
0.149 GC
2 setlinecap
1 LJ
1.111 LW
N
121 496.111 M
128.23 496.111 L
S
GR
GS
[0.45 0 0 0.45 0 0] CT
0.149 GC
2 setlinecap
1 LJ
1.111 LW
N
121 432.667 M
128.23 432.667 L
S
GR
GS
[0.45 0 0 0.45 0 0] CT
0.149 GC
2 setlinecap
1 LJ
1.111 LW
N
121 369.222 M
128.23 369.222 L
S
GR
GS
[0.45 0 0 0.45 0 0] CT
0.149 GC
2 setlinecap
1 LJ
1.111 LW
N
121 305.778 M
128.23 305.778 L
S
GR
GS
[0.45 0 0 0.45 0 0] CT
0.149 GC
2 setlinecap
1 LJ
1.111 LW
N
121 242.333 M
128.23 242.333 L
S
GR
GS
[0.45 0 0 0.45 0 0] CT
0.149 GC
2 setlinecap
1 LJ
1.111 LW
N
121 178.889 M
128.23 178.889 L
S
GR
GS
[0.45 0 0 0.45 0 0] CT
0.149 GC
2 setlinecap
1 LJ
1.111 LW
N
121 115.444 M
128.23 115.444 L
S
GR
GS
[0.45 0 0 0.45 0 0] CT
0.149 GC
2 setlinecap
1 LJ
1.111 LW
N
121 52 M
128.23 52 L
S
GR
GS
[0.45 0 0 0.45 0 0] CT
0.149 GC
2 setlinecap
1 LJ
1.111 LW
N
844 623 M
836.77 623 L
S
GR
GS
[0.45 0 0 0.45 0 0] CT
0.149 GC
2 setlinecap
1 LJ
1.111 LW
N
844 559.556 M
836.77 559.556 L
S
GR
GS
[0.45 0 0 0.45 0 0] CT
0.149 GC
2 setlinecap
1 LJ
1.111 LW
N
844 496.111 M
836.77 496.111 L
S
GR
GS
[0.45 0 0 0.45 0 0] CT
0.149 GC
2 setlinecap
1 LJ
1.111 LW
N
844 432.667 M
836.77 432.667 L
S
GR
GS
[0.45 0 0 0.45 0 0] CT
0.149 GC
2 setlinecap
1 LJ
1.111 LW
N
844 369.222 M
836.77 369.222 L
S
GR
GS
[0.45 0 0 0.45 0 0] CT
0.149 GC
2 setlinecap
1 LJ
1.111 LW
N
844 305.778 M
836.77 305.778 L
S
GR
GS
[0.45 0 0 0.45 0 0] CT
0.149 GC
2 setlinecap
1 LJ
1.111 LW
N
844 242.333 M
836.77 242.333 L
S
GR
GS
[0.45 0 0 0.45 0 0] CT
0.149 GC
2 setlinecap
1 LJ
1.111 LW
N
844 178.889 M
836.77 178.889 L
S
GR
GS
[0.45 0 0 0.45 0 0] CT
0.149 GC
2 setlinecap
1 LJ
1.111 LW
N
844 115.444 M
836.77 115.444 L
S
GR
GS
[0.45 0 0 0.45 0 0] CT
0.149 GC
2 setlinecap
1 LJ
1.111 LW
N
844 52 M
836.77 52 L
S
GR
GS
[0.45 0 0 0.45 50.45 280.35] CT
0.149 GC
/Helvetica 22.222 F
GS
[1 0 0 1 0 0] CT
-15 7.5 moveto 
1 -1 scale
(1) t 
GR
GR
GS
[0.45 0 0 0.45 50.45 251.79999] CT
0.149 GC
/Helvetica 22.222 F
GS
[1 0 0 1 0 0] CT
-36 7.5 moveto 
1 -1 scale
(1.5) t 
GR
GR
GS
[0.45 0 0 0.45 50.45 223.25] CT
0.149 GC
/Helvetica 22.222 F
GS
[1 0 0 1 0 0] CT
-15 7.5 moveto 
1 -1 scale
(2) t 
GR
GR
GS
[0.45 0 0 0.45 50.45 194.7] CT
0.149 GC
/Helvetica 22.222 F
GS
[1 0 0 1 0 0] CT
-36 7.5 moveto 
1 -1 scale
(2.5) t 
GR
GR
GS
[0.45 0 0 0.45 50.45 166.15] CT
0.149 GC
/Helvetica 22.222 F
GS
[1 0 0 1 0 0] CT
-15 7.5 moveto 
1 -1 scale
(3) t 
GR
GR
GS
[0.45 0 0 0.45 50.45 137.6] CT
0.149 GC
/Helvetica 22.222 F
GS
[1 0 0 1 0 0] CT
-36 7.5 moveto 
1 -1 scale
(3.5) t 
GR
GR
GS
[0.45 0 0 0.45 50.45 109.05] CT
0.149 GC
/Helvetica 22.222 F
GS
[1 0 0 1 0 0] CT
-15 7.5 moveto 
1 -1 scale
(4) t 
GR
GR
GS
[0.45 0 0 0.45 50.45 80.5] CT
0.149 GC
/Helvetica 22.222 F
GS
[1 0 0 1 0 0] CT
-36 7.5 moveto 
1 -1 scale
(4.5) t 
GR
GR
GS
[0.45 0 0 0.45 50.45 51.95] CT
0.149 GC
/Helvetica 22.222 F
GS
[1 0 0 1 0 0] CT
-15 7.5 moveto 
1 -1 scale
(5) t 
GR
GR
GS
[0.45 0 0 0.45 50.45 23.4] CT
0.149 GC
/Helvetica 22.222 F
GS
[1 0 0 1 0 0] CT
-36 7.5 moveto 
1 -1 scale
(5.5) t 
GR
GR
GS
[0 -0.45 0.45 0 31.25 151.87488] CT
0.149 GC
/Helvetica 24.444 F
GS
[1 0 0 1 0 0] CT
-16 -6 moveto 
1 -1 scale
(Mr) t 
GR
GR
GS
[0.45 0 0 0.45 217.1252 22.16249] CT
/Helvetica-Bold 24.444 F
GS
[1 0 0 1 0 0] CT
-50 -6 moveto 
1 -1 scale
(Mr Plot) t 
GR
GR
GS
[0.45 0 0 0.45 0 0] CT
0 0.447 0.741 RC
1 LJ
1.111 LW
N
121 112.248 M
121.412 114.398 L
121.824 116.534 L
122.236 118.654 L
122.647 120.761 L
123.059 122.853 L
123.471 124.931 L
123.883 126.995 L
124.295 129.046 L
124.707 131.083 L
125.119 133.106 L
125.531 135.115 L
125.942 137.112 L
126.354 139.095 L
126.766 141.066 L
127.178 143.023 L
127.59 144.968 L
128.002 146.9 L
128.414 148.819 L
128.825 150.726 L
129.237 152.621 L
129.649 154.504 L
130.061 156.375 L
130.473 158.233 L
130.885 160.08 L
131.297 161.915 L
131.708 163.739 L
132.12 165.551 L
132.532 167.352 L
132.944 169.141 L
133.356 170.92 L
133.768 172.687 L
134.18 174.443 L
134.592 176.189 L
135.003 177.923 L
135.415 179.647 L
135.827 181.361 L
136.239 183.064 L
136.651 184.756 L
137.063 186.439 L
137.475 188.111 L
137.886 189.773 L
138.298 191.425 L
138.71 193.067 L
139.122 194.699 L
139.534 196.322 L
139.946 197.935 L
140.358 199.538 L
140.77 201.132 L
141.181 202.717 L
141.593 204.292 L
142.005 205.858 L
142.417 207.414 L
142.829 208.962 L
143.241 210.501 L
143.653 212.031 L
144.064 213.551 L
144.476 215.064 L
144.888 216.567 L
145.3 218.062 L
145.712 219.548 L
146.124 221.026 L
146.536 222.495 L
146.948 223.957 L
147.359 225.409 L
147.771 226.854 L
148.183 228.29 L
148.595 229.719 L
149.007 231.139 L
149.419 232.552 L
149.831 233.957 L
150.242 235.354 L
150.654 236.743 L
151.066 238.124 L
151.478 239.498 L
151.89 240.865 L
152.302 242.223 L
152.714 243.575 L
153.125 244.919 L
153.537 246.256 L
153.949 247.585 L
154.361 248.908 L
154.773 250.223 L
155.185 251.531 L
155.597 252.833 L
156.009 254.127 L
156.42 255.414 L
156.832 256.695 L
157.244 257.968 L
157.656 259.235 L
158.068 260.496 L
158.48 261.749 L
158.892 262.996 L
159.303 264.237 L
159.715 265.471 L
160.127 266.699 L
160.539 267.92 L
160.951 269.135 L
161.363 270.343 L
161.775 271.546 L
162.187 272.742 L
162.598 273.932 L
163.01 275.116 L
163.422 276.294 L
163.834 277.466 L
164.246 278.632 L
164.658 279.792 L
165.07 280.946 L
165.481 282.095 L
165.893 283.237 L
166.305 284.374 L
166.717 285.506 L
167.129 286.631 L
167.541 287.751 L
167.953 288.865 L
168.365 289.974 L
168.776 291.078 L
169.188 292.176 L
169.6 293.268 L
170.012 294.355 L
170.424 295.437 L
170.836 296.513 L
171.248 297.585 L
171.659 298.651 L
172.071 299.712 L
172.483 300.767 L
172.895 301.818 L
173.307 302.864 L
173.719 303.904 L
174.131 304.94 L
174.542 305.97 L
174.954 306.996 L
175.366 308.017 L
175.778 309.033 L
176.19 310.044 L
176.602 311.05 L
177.014 312.052 L
177.426 313.049 L
177.837 314.041 L
178.249 315.028 L
178.661 316.011 L
179.073 316.99 L
179.485 317.963 L
179.897 318.933 L
180.309 319.897 L
180.72 320.858 L
181.132 321.813 L
181.544 322.765 L
181.956 323.712 L
182.368 324.655 L
182.78 325.593 L
183.192 326.527 L
183.604 327.457 L
184.015 328.383 L
184.427 329.304 L
184.839 330.221 L
185.251 331.134 L
185.663 332.044 L
186.075 332.948 L
186.487 333.849 L
186.898 334.746 L
187.31 335.639 L
187.722 336.528 L
188.134 337.413 L
188.546 338.294 L
188.958 339.171 L
189.37 340.044 L
189.781 340.913 L
190.193 341.779 L
190.605 342.64 L
191.017 343.498 L
191.429 344.352 L
191.841 345.203 L
192.253 346.049 L
192.665 346.892 L
193.076 347.732 L
193.488 348.568 L
193.9 349.4 L
194.312 350.228 L
194.724 351.053 L
195.136 351.875 L
195.548 352.693 L
195.959 353.507 L
196.371 354.318 L
196.783 355.125 L
197.195 355.929 L
197.607 356.73 L
198.019 357.527 L
198.431 358.321 L
198.843 359.112 L
199.254 359.899 L
199.666 360.683 L
200.078 361.463 L
200.49 362.241 L
200.902 363.015 L
201.314 363.786 L
201.726 364.553 L
202.137 365.318 L
202.549 366.079 L
202.961 366.837 L
203.373 367.592 L
203.785 368.344 L
204.197 369.093 L
204.609 369.839 L
205.021 370.582 L
205.432 371.321 L
205.844 372.058 L
206.256 372.792 L
206.668 373.522 L
207.08 374.25 L
207.492 374.975 L
207.904 375.697 L
208.315 376.416 L
208.727 377.132 L
209.139 377.845 L
209.551 378.555 L
209.963 379.263 L
210.375 379.967 L
210.787 380.669 L
211.198 381.368 L
211.61 382.064 L
212.022 382.758 L
212.434 383.449 L
212.846 384.137 L
213.258 384.822 L
213.67 385.505 L
214.082 386.185 L
214.493 386.862 L
214.905 387.537 L
215.317 388.209 L
215.729 388.878 L
216.141 389.545 L
216.553 390.209 L
216.965 390.871 L
217.376 391.53 L
217.788 392.186 L
218.2 392.84 L
218.612 393.491 L
219.024 394.14 L
219.436 394.787 L
219.848 395.431 L
220.26 396.072 L
220.671 396.711 L
221.083 397.348 L
221.495 397.982 L
221.907 398.614 L
222.319 399.244 L
222.731 399.871 L
223.143 400.495 L
223.554 401.118 L
223.966 401.738 L
224.378 402.355 L
224.79 402.971 L
225.202 403.584 L
225.614 404.194 L
226.026 404.803 L
226.438 405.409 L
226.849 406.013 L
227.261 406.615 L
227.673 407.214 L
228.085 407.811 L
228.497 408.406 L
228.909 408.999 L
229.321 409.59 L
229.732 410.179 L
230.144 410.765 L
230.556 411.349 L
230.968 411.931 L
231.38 412.511 L
231.792 413.089 L
232.204 413.665 L
232.615 414.239 L
233.027 414.81 L
233.439 415.38 L
233.851 415.947 L
234.263 416.513 L
234.675 417.076 L
235.087 417.637 L
235.499 418.197 L
235.91 418.754 L
236.322 419.309 L
236.734 419.863 L
237.146 420.414 L
237.558 420.964 L
237.97 421.511 L
238.382 422.057 L
238.793 422.6 L
239.205 423.142 L
239.617 423.682 L
240.029 424.22 L
240.441 424.756 L
240.853 425.29 L
241.265 425.822 L
241.677 426.352 L
242.088 426.881 L
242.5 427.408 L
242.912 427.932 L
243.324 428.456 L
243.736 428.977 L
244.148 429.496 L
244.56 430.014 L
244.971 430.53 L
245.383 431.044 L
245.795 431.556 L
246.207 432.066 L
246.619 432.575 L
247.031 433.082 L
247.443 433.587 L
247.854 434.091 L
248.266 434.593 L
248.678 435.093 L
249.09 435.591 L
249.502 436.088 L
249.914 436.583 L
250.326 437.077 L
250.738 437.568 L
251.149 438.058 L
251.561 438.547 L
251.973 439.034 L
252.385 439.519 L
252.797 440.002 L
253.209 440.484 L
253.621 440.964 L
254.032 441.443 L
254.444 441.92 L
254.856 442.396 L
255.268 442.869 L
255.68 443.342 L
256.092 443.812 L
256.504 444.282 L
256.916 444.749 L
257.327 445.215 L
257.739 445.68 L
258.151 446.143 L
258.563 446.605 L
258.975 447.065 L
259.387 447.523 L
259.799 447.98 L
260.21 448.436 L
260.622 448.89 L
261.034 449.342 L
261.446 449.793 L
261.858 450.243 L
262.27 450.691 L
262.682 451.138 L
263.094 451.583 L
263.505 452.027 L
263.917 452.469 L
264.329 452.91 L
264.741 453.35 L
265.153 453.788 L
265.565 454.225 L
265.977 454.66 L
266.388 455.094 L
266.8 455.527 L
267.212 455.958 L
267.624 456.388 L
268.036 456.816 L
268.448 457.243 L
268.86 457.669 L
269.271 458.093 L
269.683 458.517 L
270.095 458.938 L
270.507 459.359 L
270.919 459.778 L
271.331 460.195 L
271.743 460.612 L
272.155 461.027 L
272.566 461.441 L
272.978 461.854 L
273.39 462.265 L
273.802 462.675 L
274.214 463.084 L
274.626 463.491 L
275.038 463.897 L
275.449 464.302 L
275.861 464.706 L
276.273 465.108 L
276.685 465.509 L
277.097 465.909 L
277.509 466.308 L
277.921 466.706 L
278.333 467.102 L
278.744 467.497 L
279.156 467.891 L
279.568 468.283 L
279.98 468.675 L
280.392 469.065 L
280.804 469.454 L
281.216 469.842 L
281.627 470.229 L
282.039 470.614 L
282.451 470.999 L
282.863 471.382 L
283.275 471.764 L
283.687 472.145 L
284.099 472.525 L
284.51 472.903 L
284.922 473.281 L
285.334 473.657 L
285.746 474.032 L
286.158 474.407 L
286.57 474.78 L
286.982 475.151 L
287.394 475.522 L
287.805 475.892 L
288.217 476.26 L
288.629 476.628 L
289.041 476.994 L
289.453 477.359 L
289.865 477.724 L
290.277 478.087 L
290.688 478.449 L
291.1 478.81 L
291.512 479.17 L
291.924 479.529 L
292.336 479.887 L
292.748 480.243 L
293.16 480.599 L
293.572 480.954 L
293.983 481.308 L
294.395 481.66 L
294.807 482.012 L
295.219 482.362 L
295.631 482.712 L
296.043 483.06 L
296.455 483.408 L
296.866 483.755 L
297.278 484.1 L
297.69 484.445 L
298.102 484.788 L
298.514 485.131 L
298.926 485.472 L
299.338 485.813 L
299.75 486.153 L
300.161 486.491 L
300.573 486.829 L
300.985 487.166 L
301.397 487.501 L
301.809 487.836 L
302.221 488.17 L
302.633 488.503 L
303.044 488.835 L
303.456 489.166 L
303.868 489.496 L
304.28 489.825 L
304.692 490.153 L
305.104 490.48 L
305.516 490.807 L
305.927 491.132 L
306.339 491.457 L
306.751 491.78 L
307.163 492.103 L
307.575 492.425 L
307.987 492.746 L
308.399 493.066 L
308.811 493.385 L
309.222 493.703 L
309.634 494.02 L
310.046 494.337 L
310.458 494.652 L
310.87 494.967 L
311.282 495.281 L
311.694 495.594 L
312.105 495.906 L
312.517 496.217 L
312.929 496.527 L
313.341 496.837 L
313.753 497.146 L
314.165 497.453 L
314.577 497.76 L
314.989 498.066 L
315.4 498.372 L
315.812 498.676 L
316.224 498.98 L
316.636 499.283 L
317.048 499.584 L
317.46 499.886 L
317.872 500.186 L
318.283 500.485 L
318.695 500.784 L
319.107 501.082 L
319.519 501.379 L
319.931 501.675 L
320.343 501.971 L
320.755 502.265 L
321.167 502.559 L
321.578 502.852 L
321.99 503.145 L
322.402 503.436 L
322.814 503.727 L
323.226 504.017 L
323.638 504.306 L
324.05 504.594 L
324.461 504.882 L
324.873 505.169 L
325.285 505.455 L
325.697 505.74 L
326.109 506.025 L
326.521 506.308 L
326.933 506.591 L
327.344 506.874 L
327.756 507.155 L
328.168 507.436 L
328.58 507.716 L
328.992 507.995 L
329.404 508.274 L
329.816 508.552 L
330.228 508.829 L
330.639 509.105 L
331.051 509.381 L
331.463 509.656 L
331.875 509.93 L
332.287 510.203 L
332.699 510.476 L
333.111 510.748 L
333.522 511.02 L
333.934 511.29 L
334.346 511.56 L
334.758 511.829 L
335.17 512.098 L
335.582 512.366 L
335.994 512.633 L
336.406 512.899 L
336.817 513.165 L
337.229 513.43 L
337.641 513.695 L
338.053 513.958 L
338.465 514.221 L
338.877 514.484 L
339.289 514.745 L
339.7 515.006 L
340.112 515.267 L
340.524 515.526 L
340.936 515.785 L
341.348 516.044 L
341.76 516.301 L
342.172 516.558 L
342.583 516.815 L
342.995 517.07 L
343.407 517.325 L
343.819 517.58 L
344.231 517.833 L
344.643 518.087 L
345.055 518.339 L
345.467 518.591 L
345.878 518.842 L
346.29 519.093 L
346.702 519.343 L
347.114 519.592 L
347.526 519.84 L
347.938 520.089 L
348.35 520.336 L
348.761 520.583 L
349.173 520.829 L
349.585 521.074 L
349.997 521.319 L
350.409 521.564 L
350.821 521.807 L
351.233 522.05 L
351.645 522.293 L
352.056 522.535 L
352.468 522.776 L
352.88 523.017 L
353.292 523.257 L
353.704 523.496 L
354.116 523.735 L
354.528 523.973 L
354.939 524.211 L
355.351 524.448 L
355.763 524.685 L
356.175 524.921 L
356.587 525.156 L
356.999 525.391 L
357.411 525.625 L
357.823 525.859 L
358.234 526.092 L
358.646 526.324 L
359.058 526.556 L
359.47 526.787 L
359.882 527.018 L
360.294 527.248 L
360.706 527.478 L
361.117 527.707 L
361.529 527.936 L
361.941 528.164 L
362.353 528.391 L
362.765 528.618 L
363.177 528.844 L
363.589 529.07 L
364 529.295 L
364.412 529.52 L
364.824 529.744 L
365.236 529.967 L
365.648 530.19 L
366.06 530.413 L
366.472 530.635 L
366.884 530.856 L
367.295 531.077 L
367.707 531.297 L
368.119 531.517 L
368.531 531.737 L
368.943 531.955 L
369.355 532.173 L
369.767 532.391 L
370.178 532.608 L
370.59 532.825 L
371.002 533.041 L
371.414 533.257 L
371.826 533.472 L
372.238 533.687 L
372.65 533.901 L
373.062 534.114 L
373.473 534.327 L
373.885 534.54 L
374.297 534.752 L
374.709 534.963 L
375.121 535.174 L
375.533 535.385 L
375.945 535.595 L
376.356 535.805 L
376.768 536.014 L
377.18 536.222 L
377.592 536.43 L
378.004 536.638 L
378.416 536.845 L
378.828 537.052 L
379.24 537.258 L
379.651 537.463 L
380.063 537.669 L
380.475 537.873 L
380.887 538.078 L
381.299 538.281 L
381.711 538.484 L
382.123 538.687 L
382.534 538.89 L
382.946 539.091 L
383.358 539.293 L
383.77 539.494 L
384.182 539.694 L
384.594 539.894 L
385.006 540.093 L
385.417 540.292 L
385.829 540.491 L
386.241 540.689 L
386.653 540.887 L
387.065 541.084 L
387.477 541.281 L
387.889 541.477 L
388.301 541.673 L
388.712 541.868 L
389.124 542.063 L
389.536 542.257 L
389.948 542.451 L
390.36 542.645 L
390.772 542.838 L
391.184 543.031 L
391.595 543.223 L
392.007 543.415 L
392.419 543.606 L
392.831 543.797 L
393.243 543.988 L
393.655 544.178 L
394.067 544.367 L
394.479 544.556 L
394.89 544.745 L
395.302 544.933 L
395.714 545.121 L
396.126 545.309 L
396.538 545.496 L
396.95 545.682 L
397.362 545.869 L
397.773 546.054 L
398.185 546.24 L
398.597 546.425 L
399.009 546.609 L
399.421 546.793 L
399.833 546.977 L
400.245 547.16 L
400.656 547.343 L
401.068 547.525 L
401.48 547.707 L
401.892 547.889 L
402.304 548.07 L
402.716 548.251 L
403.128 548.431 L
403.54 548.611 L
403.951 548.791 L
404.363 548.97 L
404.775 549.149 L
405.187 549.327 L
405.599 549.505 L
406.011 549.683 L
406.423 549.86 L
406.834 550.037 L
407.246 550.213 L
407.658 550.389 L
408.07 550.565 L
408.482 550.74 L
408.894 550.915 L
409.306 551.089 L
409.718 551.263 L
410.129 551.437 L
410.541 551.61 L
410.953 551.783 L
411.365 551.956 L
411.777 552.128 L
412.189 552.299 L
412.601 552.471 L
413.012 552.642 L
413.424 552.812 L
413.836 552.983 L
414.248 553.152 L
414.66 553.322 L
415.072 553.491 L
415.484 553.66 L
415.896 553.828 L
416.307 553.996 L
416.719 554.164 L
417.131 554.331 L
417.543 554.498 L
417.955 554.664 L
418.367 554.831 L
418.779 554.996 L
419.19 555.162 L
419.602 555.327 L
420.014 555.492 L
420.426 555.656 L
420.838 555.82 L
421.25 555.984 L
421.662 556.147 L
422.073 556.31 L
422.485 556.472 L
422.897 556.635 L
423.309 556.796 L
423.721 556.958 L
424.133 557.119 L
424.545 557.28 L
424.957 557.44 L
425.368 557.601 L
425.78 557.76 L
426.192 557.92 L
426.604 558.079 L
427.016 558.237 L
427.428 558.396 L
427.84 558.554 L
428.251 558.712 L
428.663 558.869 L
429.075 559.026 L
429.487 559.183 L
429.899 559.339 L
430.311 559.495 L
430.723 559.651 L
431.135 559.806 L
431.546 559.961 L
431.958 560.116 L
432.37 560.27 L
432.782 560.424 L
433.194 560.578 L
433.606 560.731 L
434.018 560.884 L
434.429 561.037 L
434.841 561.189 L
435.253 561.341 L
435.665 561.493 L
436.077 561.645 L
436.489 561.796 L
436.901 561.946 L
437.313 562.097 L
437.724 562.247 L
438.136 562.397 L
438.548 562.546 L
438.96 562.695 L
439.372 562.844 L
439.784 562.993 L
440.196 563.141 L
440.607 563.289 L
441.019 563.436 L
441.431 563.584 L
441.843 563.731 L
442.255 563.877 L
442.667 564.024 L
443.079 564.17 L
443.49 564.315 L
443.902 564.461 L
444.314 564.606 L
444.726 564.751 L
445.138 564.895 L
445.55 565.039 L
445.962 565.183 L
446.374 565.327 L
446.785 565.47 L
447.197 565.613 L
447.609 565.756 L
448.021 565.898 L
448.433 566.04 L
448.845 566.182 L
449.257 566.324 L
449.668 566.465 L
450.08 566.606 L
450.492 566.746 L
450.904 566.887 L
451.316 567.027 L
451.728 567.167 L
452.14 567.306 L
452.552 567.445 L
452.963 567.584 L
453.375 567.723 L
453.787 567.861 L
454.199 567.999 L
454.611 568.136 L
455.023 568.274 L
455.435 568.411 L
455.846 568.548 L
456.258 568.684 L
456.67 568.821 L
457.082 568.957 L
457.494 569.092 L
457.906 569.228 L
458.318 569.363 L
458.729 569.498 L
459.141 569.632 L
459.553 569.767 L
459.965 569.901 L
460.377 570.035 L
460.789 570.168 L
461.201 570.301 L
461.613 570.434 L
462.024 570.567 L
462.436 570.699 L
462.848 570.831 L
463.26 570.963 L
463.672 571.095 L
464.084 571.226 L
464.496 571.357 L
464.907 571.488 L
465.319 571.618 L
465.731 571.748 L
466.143 571.878 L
466.555 572.008 L
466.967 572.137 L
467.379 572.267 L
467.791 572.396 L
468.202 572.524 L
468.614 572.652 L
469.026 572.781 L
469.438 572.908 L
469.85 573.036 L
470.262 573.163 L
470.674 573.29 L
471.085 573.417 L
471.497 573.544 L
471.909 573.67 L
472.321 573.796 L
472.733 573.922 L
473.145 574.047 L
473.557 574.172 L
473.969 574.297 L
474.38 574.422 L
474.792 574.547 L
475.204 574.671 L
475.616 574.795 L
476.028 574.919 L
476.44 575.042 L
476.852 575.165 L
477.263 575.288 L
477.675 575.411 L
478.087 575.533 L
478.499 575.656 L
478.911 575.778 L
479.323 575.899 L
479.735 576.021 L
480.146 576.142 L
480.558 576.263 L
480.97 576.384 L
481.382 576.504 L
481.794 576.624 L
482.206 576.744 L
482.618 576.864 L
483.03 576.984 L
483.441 577.103 L
483.853 577.222 L
484.265 577.341 L
484.677 577.459 L
485.089 577.578 L
485.501 577.696 L
485.913 577.814 L
486.324 577.931 L
486.736 578.049 L
487.148 578.166 L
487.56 578.283 L
487.972 578.399 L
488.384 578.516 L
488.796 578.632 L
489.208 578.748 L
489.619 578.864 L
490.031 578.979 L
490.443 579.094 L
490.855 579.209 L
491.267 579.324 L
491.679 579.439 L
492.091 579.553 L
492.502 579.667 L
492.914 579.781 L
493.326 579.895 L
493.738 580.008 L
494.15 580.121 L
494.562 580.234 L
494.974 580.347 L
495.385 580.459 L
495.797 580.572 L
496.209 580.684 L
496.621 580.796 L
497.033 580.907 L
497.445 581.019 L
497.857 581.13 L
498.269 581.241 L
498.68 581.351 L
499.092 581.462 L
499.504 581.572 L
499.916 581.682 L
500.328 581.792 L
500.74 581.902 L
501.152 582.011 L
501.563 582.12 L
501.975 582.229 L
502.387 582.338 L
502.799 582.447 L
503.211 582.555 L
503.623 582.663 L
504.035 582.771 L
504.447 582.879 L
504.858 582.986 L
505.27 583.093 L
505.682 583.2 L
506.094 583.307 L
506.506 583.414 L
506.918 583.52 L
507.33 583.626 L
507.741 583.732 L
508.153 583.838 L
508.565 583.943 L
508.977 584.049 L
509.389 584.154 L
509.801 584.259 L
510.213 584.364 L
510.625 584.468 L
511.036 584.572 L
511.448 584.676 L
511.86 584.78 L
512.272 584.884 L
512.684 584.987 L
513.096 585.091 L
513.508 585.194 L
513.919 585.297 L
514.331 585.399 L
514.743 585.502 L
515.155 585.604 L
515.567 585.706 L
515.979 585.808 L
516.391 585.909 L
516.802 586.011 L
517.214 586.112 L
517.626 586.213 L
518.038 586.314 L
518.45 586.415 L
518.862 586.515 L
519.274 586.615 L
519.686 586.715 L
520.097 586.815 L
520.509 586.915 L
520.921 587.014 L
521.333 587.114 L
521.745 587.213 L
522.157 587.311 L
522.569 587.41 L
522.98 587.509 L
523.392 587.607 L
523.804 587.705 L
524.216 587.803 L
524.628 587.9 L
525.04 587.998 L
525.452 588.095 L
525.864 588.192 L
526.275 588.289 L
526.687 588.386 L
527.099 588.482 L
527.511 588.579 L
527.923 588.675 L
528.335 588.771 L
528.747 588.867 L
529.158 588.962 L
529.57 589.058 L
529.982 589.153 L
530.394 589.248 L
530.806 589.343 L
531.218 589.437 L
531.63 589.532 L
532.042 589.626 L
532.453 589.72 L
532.865 589.814 L
533.277 589.908 L
533.689 590.001 L
534.101 590.095 L
534.513 590.188 L
534.925 590.281 L
535.336 590.374 L
535.748 590.466 L
536.16 590.559 L
536.572 590.651 L
536.984 590.743 L
537.396 590.835 L
537.808 590.927 L
538.219 591.018 L
538.631 591.109 L
539.043 591.201 L
539.455 591.292 L
539.867 591.382 L
540.279 591.473 L
540.691 591.563 L
541.103 591.654 L
541.514 591.744 L
541.926 591.834 L
542.338 591.923 L
542.75 592.013 L
543.162 592.102 L
543.574 592.192 L
543.986 592.281 L
544.397 592.369 L
544.809 592.458 L
545.221 592.547 L
545.633 592.635 L
546.045 592.723 L
546.457 592.811 L
546.869 592.899 L
547.281 592.987 L
547.692 593.074 L
548.104 593.161 L
548.516 593.248 L
548.928 593.335 L
549.34 593.422 L
549.752 593.509 L
550.164 593.595 L
550.575 593.681 L
550.987 593.767 L
551.399 593.853 L
551.811 593.939 L
552.223 594.025 L
552.635 594.11 L
553.047 594.195 L
553.458 594.28 L
553.87 594.365 L
554.282 594.45 L
554.694 594.535 L
555.106 594.619 L
555.518 594.703 L
555.93 594.787 L
556.342 594.871 L
556.753 594.955 L
557.165 595.039 L
557.577 595.122 L
557.989 595.205 L
558.401 595.288 L
558.813 595.371 L
559.225 595.454 L
559.636 595.536 L
560.048 595.619 L
560.46 595.701 L
560.872 595.783 L
561.284 595.865 L
561.696 595.947 L
562.108 596.029 L
562.52 596.11 L
562.931 596.191 L
563.343 596.272 L
563.755 596.353 L
564.167 596.434 L
564.579 596.515 L
564.991 596.595 L
565.403 596.676 L
565.814 596.756 L
566.226 596.836 L
566.638 596.916 L
567.05 596.995 L
567.462 597.075 L
567.874 597.154 L
568.286 597.233 L
568.698 597.312 L
569.109 597.391 L
569.521 597.47 L
569.933 597.549 L
570.345 597.627 L
570.757 597.705 L
571.169 597.784 L
571.581 597.861 L
571.992 597.939 L
572.404 598.017 L
572.816 598.094 L
573.228 598.172 L
573.64 598.249 L
574.052 598.326 L
574.464 598.403 L
574.875 598.48 L
575.287 598.556 L
575.699 598.633 L
576.111 598.709 L
576.523 598.785 L
576.935 598.861 L
577.347 598.937 L
577.759 599.012 L
578.17 599.088 L
578.582 599.163 L
578.994 599.238 L
579.406 599.314 L
579.818 599.388 L
580.23 599.463 L
580.642 599.538 L
581.053 599.612 L
581.465 599.687 L
581.877 599.761 L
582.289 599.835 L
582.701 599.909 L
583.113 599.982 L
583.525 600.056 L
583.937 600.129 L
584.348 600.203 L
584.76 600.276 L
585.172 600.349 L
585.584 600.422 L
585.996 600.494 L
586.408 600.567 L
586.82 600.639 L
587.231 600.711 L
587.643 600.784 L
588.055 600.855 L
588.467 600.927 L
588.879 600.999 L
589.291 601.07 L
589.703 601.142 L
590.115 601.213 L
590.526 601.284 L
590.938 601.355 L
591.35 601.426 L
591.762 601.497 L
592.174 601.567 L
592.586 601.637 L
592.998 601.708 L
593.409 601.778 L
593.821 601.848 L
594.233 601.918 L
594.645 601.987 L
595.057 602.057 L
595.469 602.126 L
595.881 602.195 L
596.292 602.264 L
596.704 602.333 L
597.116 602.402 L
597.528 602.471 L
597.94 602.539 L
598.352 602.608 L
598.764 602.676 L
599.176 602.744 L
599.587 602.812 L
599.999 602.88 L
600.411 602.948 L
600.823 603.015 L
601.235 603.083 L
601.647 603.15 L
602.059 603.217 L
602.47 603.284 L
602.882 603.351 L
603.294 603.418 L
603.706 603.484 L
604.118 603.551 L
604.53 603.617 L
604.942 603.683 L
605.354 603.75 L
605.765 603.815 L
606.177 603.881 L
606.589 603.947 L
607.001 604.012 L
607.413 604.078 L
607.825 604.143 L
608.237 604.208 L
608.648 604.273 L
609.06 604.338 L
609.472 604.403 L
609.884 604.467 L
610.296 604.532 L
610.708 604.596 L
611.12 604.66 L
611.531 604.724 L
611.943 604.788 L
612.355 604.852 L
612.767 604.916 L
613.179 604.979 L
613.591 605.043 L
614.003 605.106 L
614.415 605.169 L
614.826 605.232 L
615.238 605.295 L
615.65 605.357 L
616.062 605.42 L
616.474 605.483 L
616.886 605.545 L
617.298 605.607 L
617.709 605.669 L
618.121 605.731 L
618.533 605.793 L
618.945 605.855 L
619.357 605.916 L
619.769 605.978 L
620.181 606.039 L
620.593 606.1 L
621.004 606.161 L
621.416 606.222 L
621.828 606.283 L
622.24 606.343 L
622.652 606.404 L
623.064 606.464 L
623.476 606.525 L
623.887 606.585 L
624.299 606.645 L
624.711 606.705 L
625.123 606.764 L
625.535 606.824 L
625.947 606.884 L
626.359 606.943 L
626.771 607.002 L
627.182 607.061 L
627.594 607.12 L
628.006 607.179 L
628.418 607.238 L
628.83 607.297 L
629.242 607.355 L
629.654 607.414 L
630.065 607.472 L
630.477 607.53 L
630.889 607.588 L
631.301 607.646 L
631.713 607.703 L
632.125 607.761 L
632.537 607.819 L
632.948 607.876 L
633.36 607.933 L
633.772 607.99 L
634.184 608.047 L
634.596 608.104 L
635.008 608.161 L
635.42 608.218 L
635.832 608.274 L
636.243 608.331 L
636.655 608.387 L
637.067 608.443 L
637.479 608.499 L
637.891 608.555 L
638.303 608.611 L
638.715 608.666 L
639.126 608.722 L
639.538 608.777 L
639.95 608.833 L
640.362 608.888 L
640.774 608.943 L
641.186 608.998 L
641.598 609.053 L
642.01 609.107 L
642.421 609.162 L
642.833 609.216 L
643.245 609.271 L
643.657 609.325 L
644.069 609.379 L
644.481 609.433 L
644.893 609.487 L
645.304 609.541 L
645.716 609.594 L
646.128 609.648 L
646.54 609.701 L
646.952 609.754 L
647.364 609.808 L
647.776 609.861 L
648.188 609.914 L
648.599 609.966 L
649.011 610.019 L
649.423 610.072 L
649.835 610.124 L
650.247 610.176 L
650.659 610.228 L
651.071 610.281 L
651.482 610.333 L
651.894 610.384 L
652.306 610.436 L
652.718 610.488 L
653.13 610.539 L
653.542 610.591 L
653.954 610.642 L
654.365 610.693 L
654.777 610.744 L
655.189 610.795 L
655.601 610.846 L
656.013 610.896 L
656.425 610.947 L
656.837 610.997 L
657.249 611.048 L
657.66 611.098 L
658.072 611.148 L
658.484 611.198 L
658.896 611.248 L
659.308 611.298 L
659.72 611.347 L
660.132 611.397 L
660.543 611.446 L
660.955 611.496 L
661.367 611.545 L
661.779 611.594 L
662.191 611.643 L
662.603 611.692 L
663.015 611.74 L
663.427 611.789 L
663.838 611.838 L
664.25 611.886 L
664.662 611.934 L
665.074 611.982 L
665.486 612.03 L
665.898 612.078 L
666.31 612.126 L
666.721 612.174 L
667.133 612.221 L
667.545 612.269 L
667.957 612.316 L
668.369 612.364 L
668.781 612.411 L
669.193 612.458 L
669.604 612.505 L
670.016 612.552 L
670.428 612.598 L
670.84 612.645 L
671.252 612.691 L
671.664 612.738 L
672.076 612.784 L
672.488 612.83 L
672.899 612.876 L
673.311 612.922 L
673.723 612.968 L
674.135 613.013 L
674.547 613.059 L
674.959 613.105 L
675.371 613.15 L
675.782 613.195 L
676.194 613.24 L
676.606 613.285 L
677.018 613.33 L
677.43 613.375 L
677.842 613.42 L
678.254 613.464 L
678.666 613.509 L
679.077 613.553 L
679.489 613.598 L
679.901 613.642 L
680.313 613.686 L
680.725 613.73 L
681.137 613.773 L
681.549 613.817 L
681.96 613.861 L
682.372 613.904 L
682.784 613.948 L
683.196 613.991 L
683.608 614.034 L
684.02 614.077 L
684.432 614.12 L
684.844 614.163 L
685.255 614.206 L
685.667 614.248 L
686.079 614.291 L
686.491 614.333 L
686.903 614.376 L
687.315 614.418 L
687.727 614.46 L
688.138 614.502 L
688.55 614.544 L
688.962 614.586 L
689.374 614.627 L
689.786 614.669 L
690.198 614.71 L
690.61 614.752 L
691.021 614.793 L
691.433 614.834 L
691.845 614.875 L
692.257 614.916 L
692.669 614.957 L
693.081 614.997 L
693.493 615.038 L
693.905 615.078 L
694.316 615.119 L
694.728 615.159 L
695.14 615.199 L
695.552 615.239 L
695.964 615.279 L
696.376 615.319 L
696.788 615.359 L
697.199 615.399 L
697.611 615.438 L
698.023 615.478 L
698.435 615.517 L
698.847 615.556 L
699.259 615.595 L
699.671 615.634 L
700.083 615.673 L
700.494 615.712 L
700.906 615.751 L
701.318 615.789 L
701.73 615.828 L
702.142 615.866 L
702.554 615.904 L
702.966 615.942 L
703.377 615.98 L
703.789 616.018 L
704.201 616.056 L
704.613 616.094 L
705.025 616.132 L
705.437 616.169 L
705.849 616.207 L
706.26 616.244 L
706.672 616.281 L
707.084 616.318 L
707.496 616.355 L
707.908 616.392 L
708.32 616.429 L
708.732 616.466 L
709.144 616.502 L
709.555 616.539 L
709.967 616.575 L
710.379 616.611 L
710.791 616.648 L
711.203 616.684 L
711.615 616.72 L
712.027 616.755 L
712.438 616.791 L
712.85 616.827 L
713.262 616.862 L
713.674 616.898 L
714.086 616.933 L
714.498 616.968 L
714.91 617.004 L
715.322 617.039 L
715.733 617.074 L
716.145 617.108 L
716.557 617.143 L
716.969 617.178 L
717.381 617.212 L
717.793 617.247 L
718.205 617.281 L
718.616 617.315 L
719.028 617.349 L
719.44 617.383 L
719.852 617.417 L
720.264 617.451 L
720.676 617.485 L
721.088 617.518 L
721.5 617.552 L
721.911 617.585 L
722.323 617.618 L
722.735 617.652 L
723.147 617.685 L
723.559 617.718 L
723.971 617.751 L
724.383 617.783 L
724.794 617.816 L
725.206 617.849 L
725.618 617.881 L
726.03 617.913 L
726.442 617.946 L
726.854 617.978 L
727.266 618.01 L
727.677 618.042 L
728.089 618.074 L
728.501 618.105 L
728.913 618.137 L
729.325 618.169 L
729.737 618.2 L
730.149 618.231 L
730.561 618.263 L
730.972 618.294 L
731.384 618.325 L
731.796 618.356 L
732.208 618.387 L
732.62 618.417 L
733.032 618.448 L
733.444 618.479 L
733.855 618.509 L
734.267 618.539 L
734.679 618.57 L
735.091 618.6 L
735.503 618.63 L
735.915 618.66 L
736.327 618.689 L
736.739 618.719 L
737.15 618.749 L
737.562 618.778 L
737.974 618.808 L
738.386 618.837 L
738.798 618.866 L
739.21 618.895 L
739.622 618.924 L
740.033 618.953 L
740.445 618.982 L
740.857 619.011 L
741.269 619.039 L
741.681 619.068 L
742.093 619.096 L
742.505 619.125 L
742.917 619.153 L
743.328 619.181 L
743.74 619.209 L
744.152 619.237 L
744.564 619.265 L
744.976 619.292 L
745.388 619.32 L
745.8 619.347 L
746.211 619.375 L
746.623 619.402 L
747.035 619.429 L
747.447 619.456 L
747.859 619.483 L
748.271 619.51 L
748.683 619.537 L
749.094 619.564 L
749.506 619.59 L
749.918 619.617 L
750.33 619.643 L
750.742 619.669 L
751.154 619.696 L
751.566 619.722 L
751.978 619.748 L
752.389 619.774 L
752.801 619.799 L
753.213 619.825 L
753.625 619.851 L
754.037 619.876 L
754.449 619.901 L
754.861 619.927 L
755.272 619.952 L
755.684 619.977 L
756.096 620.002 L
756.508 620.027 L
756.92 620.052 L
757.332 620.076 L
757.744 620.101 L
758.156 620.125 L
758.567 620.15 L
758.979 620.174 L
759.391 620.198 L
759.803 620.222 L
760.215 620.246 L
760.627 620.27 L
761.039 620.294 L
761.45 620.317 L
761.862 620.341 L
762.274 620.364 L
762.686 620.388 L
763.098 620.411 L
763.51 620.434 L
763.922 620.457 L
764.333 620.48 L
764.745 620.503 L
765.157 620.526 L
765.569 620.549 L
765.981 620.571 L
766.393 620.594 L
766.805 620.616 L
767.217 620.638 L
767.628 620.66 L
768.04 620.682 L
768.452 620.704 L
768.864 620.726 L
769.276 620.748 L
769.688 620.77 L
770.1 620.791 L
770.511 620.813 L
770.923 620.834 L
771.335 620.855 L
771.747 620.876 L
772.159 620.897 L
772.571 620.918 L
772.983 620.939 L
773.395 620.96 L
773.806 620.98 L
774.218 621.001 L
774.63 621.021 L
775.042 621.042 L
775.454 621.062 L
775.866 621.082 L
776.278 621.102 L
776.689 621.122 L
777.101 621.142 L
777.513 621.162 L
777.925 621.181 L
778.337 621.201 L
778.749 621.22 L
779.161 621.239 L
779.573 621.259 L
779.984 621.278 L
780.396 621.297 L
780.808 621.316 L
781.22 621.334 L
781.632 621.353 L
782.044 621.372 L
782.456 621.39 L
782.867 621.409 L
783.279 621.427 L
783.691 621.445 L
784.103 621.463 L
784.515 621.481 L
784.927 621.499 L
785.339 621.517 L
785.75 621.535 L
786.162 621.552 L
786.574 621.57 L
786.986 621.587 L
787.398 621.604 L
787.81 621.621 L
788.222 621.638 L
788.634 621.655 L
789.045 621.672 L
789.457 621.689 L
789.869 621.706 L
790.281 621.722 L
790.693 621.739 L
791.105 621.755 L
791.517 621.771 L
791.928 621.787 L
792.34 621.804 L
792.752 621.819 L
793.164 621.835 L
793.576 621.851 L
793.988 621.867 L
794.4 621.882 L
794.812 621.898 L
795.223 621.913 L
795.635 621.928 L
796.047 621.943 L
796.459 621.958 L
796.871 621.973 L
797.283 621.988 L
797.695 622.003 L
798.106 622.017 L
798.518 622.032 L
798.93 622.046 L
799.342 622.06 L
799.754 622.075 L
800.166 622.089 L
800.578 622.103 L
800.99 622.117 L
801.401 622.13 L
801.813 622.144 L
802.225 622.157 L
802.637 622.171 L
803.049 622.184 L
803.461 622.198 L
803.873 622.211 L
804.284 622.224 L
804.696 622.237 L
805.108 622.249 L
805.52 622.262 L
805.932 622.275 L
806.344 622.287 L
806.756 622.3 L
807.167 622.312 L
807.579 622.324 L
807.991 622.336 L
808.403 622.348 L
808.815 622.36 L
809.227 622.372 L
809.639 622.383 L
810.051 622.395 L
810.462 622.406 L
810.874 622.418 L
811.286 622.429 L
811.698 622.44 L
812.11 622.451 L
812.522 622.462 L
812.934 622.473 L
813.345 622.484 L
813.757 622.494 L
814.169 622.505 L
814.581 622.515 L
814.993 622.525 L
815.405 622.536 L
815.817 622.546 L
816.229 622.556 L
816.64 622.565 L
817.052 622.575 L
817.464 622.585 L
817.876 622.594 L
818.288 622.604 L
818.7 622.613 L
819.112 622.622 L
819.523 622.631 L
819.935 622.64 L
820.347 622.649 L
820.759 622.658 L
821.171 622.667 L
821.583 622.675 L
821.995 622.684 L
822.406 622.692 L
822.818 622.7 L
823.23 622.708 L
823.642 622.716 L
824.054 622.724 L
824.466 622.732 L
824.878 622.74 L
825.29 622.747 L
825.701 622.755 L
826.113 622.762 L
826.525 622.77 L
826.937 622.777 L
827.349 622.784 L
827.761 622.791 L
828.173 622.797 L
828.584 622.804 L
828.996 622.811 L
829.408 622.817 L
829.82 622.824 L
830.232 622.83 L
830.644 622.836 L
831.056 622.842 L
831.468 622.848 L
831.879 622.854 L
832.291 622.859 L
832.703 622.865 L
833.115 622.871 L
833.527 622.876 L
833.939 622.881 L
834.351 622.886 L
834.762 622.891 L
835.174 622.896 L
835.586 622.901 L
835.998 622.906 L
836.41 622.91 L
836.822 622.915 L
837.234 622.919 L
837.646 622.923 L
838.057 622.928 L
838.469 622.932 L
838.881 622.936 L
839.293 622.939 L
839.705 622.943 L
840.117 622.947 L
840.529 622.95 L
840.94 622.953 L
841.352 622.957 L
841.764 622.96 L
842.176 622.963 L
842.588 622.966 L
843 622.968 L
843.412 622.971 L
843.823 622.974 L
S
GR
%%Trailer
%%Pages: 1
%%EOF
