%!PS-Adobe-3.0 EPSF-3.0
%%Creator: (MATLAB, The Mathworks, Inc. Version 9.10.0.1739362 \(R2021a\) Update 5. Operating System: Linux)
%%Title: ./question2Answer.eps
%%CreationDate: 2021-11-16T16:17:18
%%Pages: (atend)
%%BoundingBox:    20     6   387   304
%%LanguageLevel: 3
%%EndComments
%%BeginProlog
%%BeginResource: procset (Apache XML Graphics Std ProcSet) 1.2 0
%%Version: 1.2 0
%%Copyright: (Copyright 2001-2003,2010 The Apache Software Foundation. License terms: http://www.apache.org/licenses/LICENSE-2.0)
/bd{bind def}bind def
/ld{load def}bd
/GR/grestore ld
/GS/gsave ld
/RM/rmoveto ld
/C/curveto ld
/t/show ld
/L/lineto ld
/ML/setmiterlimit ld
/CT/concat ld
/f/fill ld
/N/newpath ld
/S/stroke ld
/CC/setcmykcolor ld
/A/ashow ld
/cp/closepath ld
/RC/setrgbcolor ld
/LJ/setlinejoin ld
/GC/setgray ld
/LW/setlinewidth ld
/M/moveto ld
/re {4 2 roll M
1 index 0 rlineto
0 exch rlineto
neg 0 rlineto
cp } bd
/_ctm matrix def
/_tm matrix def
/BT { _ctm currentmatrix pop matrix _tm copy pop 0 0 moveto } bd
/ET { _ctm setmatrix } bd
/iTm { _ctm setmatrix _tm concat } bd
/Tm { _tm astore pop iTm 0 0 moveto } bd
/ux 0.0 def
/uy 0.0 def
/F {
  /Tp exch def
  /Tf exch def
  Tf findfont Tp scalefont setfont
  /cf Tf def  /cs Tp def
} bd
/ULS {currentpoint /uy exch def /ux exch def} bd
/ULE {
  /Tcx currentpoint pop def
  gsave
  newpath
  cf findfont cs scalefont dup
  /FontMatrix get 0 get /Ts exch def /FontInfo get dup
  /UnderlinePosition get Ts mul /To exch def
  /UnderlineThickness get Ts mul /Tt exch def
  ux uy To add moveto  Tcx uy To add lineto
  Tt setlinewidth stroke
  grestore
} bd
/OLE {
  /Tcx currentpoint pop def
  gsave
  newpath
  cf findfont cs scalefont dup
  /FontMatrix get 0 get /Ts exch def /FontInfo get dup
  /UnderlinePosition get Ts mul /To exch def
  /UnderlineThickness get Ts mul /Tt exch def
  ux uy To add cs add moveto Tcx uy To add cs add lineto
  Tt setlinewidth stroke
  grestore
} bd
/SOE {
  /Tcx currentpoint pop def
  gsave
  newpath
  cf findfont cs scalefont dup
  /FontMatrix get 0 get /Ts exch def /FontInfo get dup
  /UnderlinePosition get Ts mul /To exch def
  /UnderlineThickness get Ts mul /Tt exch def
  ux uy To add cs 10 mul 26 idiv add moveto Tcx uy To add cs 10 mul 26 idiv add lineto
  Tt setlinewidth stroke
  grestore
} bd
/QT {
/Y22 exch store
/X22 exch store
/Y21 exch store
/X21 exch store
currentpoint
/Y21 load 2 mul add 3 div exch
/X21 load 2 mul add 3 div exch
/X21 load 2 mul /X22 load add 3 div
/Y21 load 2 mul /Y22 load add 3 div
/X22 load /Y22 load curveto
} bd
/SSPD {
dup length /d exch dict def
{
/v exch def
/k exch def
currentpagedevice k known {
/cpdv currentpagedevice k get def
v cpdv ne {
/upd false def
/nullv v type /nulltype eq def
/nullcpdv cpdv type /nulltype eq def
nullv nullcpdv or
{
/upd true def
} {
/sametype v type cpdv type eq def
sametype {
v type /arraytype eq {
/vlen v length def
/cpdvlen cpdv length def
vlen cpdvlen eq {
0 1 vlen 1 sub {
/i exch def
/obj v i get def
/cpdobj cpdv i get def
obj cpdobj ne {
/upd true def
exit
} if
} for
} {
/upd true def
} ifelse
} {
v type /dicttype eq {
v {
/dv exch def
/dk exch def
/cpddv cpdv dk get def
dv cpddv ne {
/upd true def
exit
} if
} forall
} {
/upd true def
} ifelse
} ifelse
} if
} ifelse
upd true eq {
d k v put
} if
} if
} if
} forall
d length 0 gt {
d setpagedevice
} if
} bd
/RE { % /NewFontName [NewEncodingArray] /FontName RE -
  findfont dup length dict begin
  {
    1 index /FID ne
    {def} {pop pop} ifelse
  } forall
  /Encoding exch def
  /FontName 1 index def
  currentdict definefont pop
  end
} bind def
%%EndResource
%%BeginResource: procset (Apache XML Graphics EPS ProcSet) 1.0 0
%%Version: 1.0 0
%%Copyright: (Copyright 2002-2003 The Apache Software Foundation. License terms: http://www.apache.org/licenses/LICENSE-2.0)
/BeginEPSF { %def
/b4_Inc_state save def         % Save state for cleanup
/dict_count countdictstack def % Count objects on dict stack
/op_count count 1 sub def      % Count objects on operand stack
userdict begin                 % Push userdict on dict stack
/showpage { } def              % Redefine showpage, { } = null proc
0 setgray 0 setlinecap         % Prepare graphics state
1 setlinewidth 0 setlinejoin
10 setmiterlimit [ ] 0 setdash newpath
/languagelevel where           % If level not equal to 1 then
{pop languagelevel             % set strokeadjust and
1 ne                           % overprint to their defaults.
{false setstrokeadjust false setoverprint
} if
} if
} bd
/EndEPSF { %def
count op_count sub {pop} repeat            % Clean up stacks
countdictstack dict_count sub {end} repeat
b4_Inc_state restore
} bd
%%EndResource
%FOPBeginFontDict
%%IncludeResource: font Courier-Oblique
%%IncludeResource: font Courier-BoldOblique
%%IncludeResource: font Courier-Bold
%%IncludeResource: font ZapfDingbats
%%IncludeResource: font Symbol
%%IncludeResource: font Helvetica
%%IncludeResource: font Helvetica-Oblique
%%IncludeResource: font Helvetica-Bold
%%IncludeResource: font Helvetica-BoldOblique
%%IncludeResource: font Times-Roman
%%IncludeResource: font Times-Italic
%%IncludeResource: font Times-Bold
%%IncludeResource: font Times-BoldItalic
%%IncludeResource: font Courier
%FOPEndFontDict
%%BeginResource: encoding WinAnsiEncoding
/WinAnsiEncoding [
/.notdef /.notdef /.notdef /.notdef /.notdef
/.notdef /.notdef /.notdef /.notdef /.notdef
/.notdef /.notdef /.notdef /.notdef /.notdef
/.notdef /.notdef /.notdef /.notdef /.notdef
/.notdef /.notdef /.notdef /.notdef /.notdef
/.notdef /.notdef /.notdef /.notdef /.notdef
/.notdef /.notdef /space /exclam /quotedbl
/numbersign /dollar /percent /ampersand /quotesingle
/parenleft /parenright /asterisk /plus /comma
/hyphen /period /slash /zero /one
/two /three /four /five /six
/seven /eight /nine /colon /semicolon
/less /equal /greater /question /at
/A /B /C /D /E
/F /G /H /I /J
/K /L /M /N /O
/P /Q /R /S /T
/U /V /W /X /Y
/Z /bracketleft /backslash /bracketright /asciicircum
/underscore /quoteleft /a /b /c
/d /e /f /g /h
/i /j /k /l /m
/n /o /p /q /r
/s /t /u /v /w
/x /y /z /braceleft /bar
/braceright /asciitilde /bullet /Euro /bullet
/quotesinglbase /florin /quotedblbase /ellipsis /dagger
/daggerdbl /circumflex /perthousand /Scaron /guilsinglleft
/OE /bullet /Zcaron /bullet /bullet
/quoteleft /quoteright /quotedblleft /quotedblright /bullet
/endash /emdash /asciitilde /trademark /scaron
/guilsinglright /oe /bullet /zcaron /Ydieresis
/space /exclamdown /cent /sterling /currency
/yen /brokenbar /section /dieresis /copyright
/ordfeminine /guillemotleft /logicalnot /sfthyphen /registered
/macron /degree /plusminus /twosuperior /threesuperior
/acute /mu /paragraph /middot /cedilla
/onesuperior /ordmasculine /guillemotright /onequarter /onehalf
/threequarters /questiondown /Agrave /Aacute /Acircumflex
/Atilde /Adieresis /Aring /AE /Ccedilla
/Egrave /Eacute /Ecircumflex /Edieresis /Igrave
/Iacute /Icircumflex /Idieresis /Eth /Ntilde
/Ograve /Oacute /Ocircumflex /Otilde /Odieresis
/multiply /Oslash /Ugrave /Uacute /Ucircumflex
/Udieresis /Yacute /Thorn /germandbls /agrave
/aacute /acircumflex /atilde /adieresis /aring
/ae /ccedilla /egrave /eacute /ecircumflex
/edieresis /igrave /iacute /icircumflex /idieresis
/eth /ntilde /ograve /oacute /ocircumflex
/otilde /odieresis /divide /oslash /ugrave
/uacute /ucircumflex /udieresis /yacute /thorn
/ydieresis
] def
%%EndResource
%FOPBeginFontReencode
/Courier-Oblique findfont
dup length dict begin
  {1 index /FID ne {def} {pop pop} ifelse} forall
  /Encoding WinAnsiEncoding def
  currentdict
end
/Courier-Oblique exch definefont pop
/Courier-BoldOblique findfont
dup length dict begin
  {1 index /FID ne {def} {pop pop} ifelse} forall
  /Encoding WinAnsiEncoding def
  currentdict
end
/Courier-BoldOblique exch definefont pop
/Courier-Bold findfont
dup length dict begin
  {1 index /FID ne {def} {pop pop} ifelse} forall
  /Encoding WinAnsiEncoding def
  currentdict
end
/Courier-Bold exch definefont pop
/Helvetica findfont
dup length dict begin
  {1 index /FID ne {def} {pop pop} ifelse} forall
  /Encoding WinAnsiEncoding def
  currentdict
end
/Helvetica exch definefont pop
/Helvetica-Oblique findfont
dup length dict begin
  {1 index /FID ne {def} {pop pop} ifelse} forall
  /Encoding WinAnsiEncoding def
  currentdict
end
/Helvetica-Oblique exch definefont pop
/Helvetica-Bold findfont
dup length dict begin
  {1 index /FID ne {def} {pop pop} ifelse} forall
  /Encoding WinAnsiEncoding def
  currentdict
end
/Helvetica-Bold exch definefont pop
/Helvetica-BoldOblique findfont
dup length dict begin
  {1 index /FID ne {def} {pop pop} ifelse} forall
  /Encoding WinAnsiEncoding def
  currentdict
end
/Helvetica-BoldOblique exch definefont pop
/Times-Roman findfont
dup length dict begin
  {1 index /FID ne {def} {pop pop} ifelse} forall
  /Encoding WinAnsiEncoding def
  currentdict
end
/Times-Roman exch definefont pop
/Times-Italic findfont
dup length dict begin
  {1 index /FID ne {def} {pop pop} ifelse} forall
  /Encoding WinAnsiEncoding def
  currentdict
end
/Times-Italic exch definefont pop
/Times-Bold findfont
dup length dict begin
  {1 index /FID ne {def} {pop pop} ifelse} forall
  /Encoding WinAnsiEncoding def
  currentdict
end
/Times-Bold exch definefont pop
/Times-BoldItalic findfont
dup length dict begin
  {1 index /FID ne {def} {pop pop} ifelse} forall
  /Encoding WinAnsiEncoding def
  currentdict
end
/Times-BoldItalic exch definefont pop
/Courier findfont
dup length dict begin
  {1 index /FID ne {def} {pop pop} ifelse} forall
  /Encoding WinAnsiEncoding def
  currentdict
end
/Courier exch definefont pop
%FOPEndFontReencode
%%EndProlog
%%Page: 1 1
%%PageBoundingBox: 0 0 420 315
%%BeginPageSetup
[1 0 0 -1 0 315] CT
%%EndPageSetup
GS
[0.45 0 0 0.45 0 0] CT
1 GC
N
0 0 933 700 re
f
GR
GS
[0.45 0 0 0.45 0 0] CT
1 GC
N
121 623 M
844 623 L
844 52 L
121 52 L
cp
f
GR
GS
[0.45 0 0 0.45 0 0] CT
0.873 GC
1 LJ
1.111 LW
N
121 623 M
121 52 L
S
GR
GS
[0.45 0 0 0.45 0 0] CT
0.873 GC
1 LJ
1.111 LW
N
241.5 623 M
241.5 52 L
S
GR
GS
[0.45 0 0 0.45 0 0] CT
0.873 GC
1 LJ
1.111 LW
N
362 623 M
362 52 L
S
GR
GS
[0.45 0 0 0.45 0 0] CT
0.873 GC
1 LJ
1.111 LW
N
482.5 623 M
482.5 52 L
S
GR
GS
[0.45 0 0 0.45 0 0] CT
0.873 GC
1 LJ
1.111 LW
N
603 623 M
603 52 L
S
GR
GS
[0.45 0 0 0.45 0 0] CT
0.873 GC
1 LJ
1.111 LW
N
723.5 623 M
723.5 52 L
S
GR
GS
[0.45 0 0 0.45 0 0] CT
0.873 GC
1 LJ
1.111 LW
N
844 623 M
844 52 L
S
GR
GS
[0.45 0 0 0.45 0 0] CT
0.873 GC
1 LJ
1.111 LW
N
844 623 M
121 623 L
S
GR
GS
[0.45 0 0 0.45 0 0] CT
0.873 GC
1 LJ
1.111 LW
N
844 527.833 M
121 527.833 L
S
GR
GS
[0.45 0 0 0.45 0 0] CT
0.873 GC
1 LJ
1.111 LW
N
844 432.667 M
121 432.667 L
S
GR
GS
[0.45 0 0 0.45 0 0] CT
0.873 GC
1 LJ
1.111 LW
N
844 337.5 M
121 337.5 L
S
GR
GS
[0.45 0 0 0.45 0 0] CT
0.873 GC
1 LJ
1.111 LW
N
844 242.333 M
121 242.333 L
S
GR
GS
[0.45 0 0 0.45 0 0] CT
0.873 GC
1 LJ
1.111 LW
N
844 147.167 M
121 147.167 L
S
GR
GS
[0.45 0 0 0.45 0 0] CT
0.873 GC
1 LJ
1.111 LW
N
844 52 M
121 52 L
S
GR
GS
[0.45 0 0 0.45 0 0] CT
0.149 GC
2 setlinecap
1 LJ
1.111 LW
N
121 623 M
844 623 L
S
GR
GS
[0.45 0 0 0.45 0 0] CT
0.149 GC
2 setlinecap
1 LJ
1.111 LW
N
121 52 M
844 52 L
S
GR
GS
[0.45 0 0 0.45 0 0] CT
0.149 GC
2 setlinecap
1 LJ
1.111 LW
N
121 623 M
121 615.77 L
S
GR
GS
[0.45 0 0 0.45 0 0] CT
0.149 GC
2 setlinecap
1 LJ
1.111 LW
N
241.5 623 M
241.5 615.77 L
S
GR
GS
[0.45 0 0 0.45 0 0] CT
0.149 GC
2 setlinecap
1 LJ
1.111 LW
N
362 623 M
362 615.77 L
S
GR
GS
[0.45 0 0 0.45 0 0] CT
0.149 GC
2 setlinecap
1 LJ
1.111 LW
N
482.5 623 M
482.5 615.77 L
S
GR
GS
[0.45 0 0 0.45 0 0] CT
0.149 GC
2 setlinecap
1 LJ
1.111 LW
N
603 623 M
603 615.77 L
S
GR
GS
[0.45 0 0 0.45 0 0] CT
0.149 GC
2 setlinecap
1 LJ
1.111 LW
N
723.5 623 M
723.5 615.77 L
S
GR
GS
[0.45 0 0 0.45 0 0] CT
0.149 GC
2 setlinecap
1 LJ
1.111 LW
N
844 623 M
844 615.77 L
S
GR
GS
[0.45 0 0 0.45 0 0] CT
0.149 GC
2 setlinecap
1 LJ
1.111 LW
N
121 52 M
121 59.23 L
S
GR
GS
[0.45 0 0 0.45 0 0] CT
0.149 GC
2 setlinecap
1 LJ
1.111 LW
N
241.5 52 M
241.5 59.23 L
S
GR
GS
[0.45 0 0 0.45 0 0] CT
0.149 GC
2 setlinecap
1 LJ
1.111 LW
N
362 52 M
362 59.23 L
S
GR
GS
[0.45 0 0 0.45 0 0] CT
0.149 GC
2 setlinecap
1 LJ
1.111 LW
N
482.5 52 M
482.5 59.23 L
S
GR
GS
[0.45 0 0 0.45 0 0] CT
0.149 GC
2 setlinecap
1 LJ
1.111 LW
N
603 52 M
603 59.23 L
S
GR
GS
[0.45 0 0 0.45 0 0] CT
0.149 GC
2 setlinecap
1 LJ
1.111 LW
N
723.5 52 M
723.5 59.23 L
S
GR
GS
[0.45 0 0 0.45 0 0] CT
0.149 GC
2 setlinecap
1 LJ
1.111 LW
N
844 52 M
844 59.23 L
S
GR
GS
[0.45 0 0 0.45 54.45 284.35001] CT
0.149 GC
/Helvetica 22.222 F
GS
[1 0 0 1 0 0] CT
-7.5 21 moveto 
1 -1 scale
(0) t 
GR
GR
GS
[0.45 0 0 0.45 108.675 284.35001] CT
0.149 GC
/Helvetica 22.222 F
GS
[1 0 0 1 0 0] CT
-18 21 moveto 
1 -1 scale
(0.2) t 
GR
GR
GS
[0.45 0 0 0.45 162.9 284.35001] CT
0.149 GC
/Helvetica 22.222 F
GS
[1 0 0 1 0 0] CT
-18 21 moveto 
1 -1 scale
(0.4) t 
GR
GR
GS
[0.45 0 0 0.45 217.125 284.35001] CT
0.149 GC
/Helvetica 22.222 F
GS
[1 0 0 1 0 0] CT
-18 21 moveto 
1 -1 scale
(0.6) t 
GR
GR
GS
[0.45 0 0 0.45 271.35 284.35001] CT
0.149 GC
/Helvetica 22.222 F
GS
[1 0 0 1 0 0] CT
-18 21 moveto 
1 -1 scale
(0.8) t 
GR
GR
GS
[0.45 0 0 0.45 325.575 284.35001] CT
0.149 GC
/Helvetica 22.222 F
GS
[1 0 0 1 0 0] CT
-7.5 21 moveto 
1 -1 scale
(1) t 
GR
GR
GS
[0.45 0 0 0.45 379.80001 284.35001] CT
0.149 GC
/Helvetica 22.222 F
GS
[1 0 0 1 0 0] CT
-18 21 moveto 
1 -1 scale
(1.2) t 
GR
GR
GS
[0.45 0 0 0.45 217.12517 297.49999] CT
0.149 GC
/Helvetica 24.444 F
GS
[1 0 0 1 0 0] CT
-26.5 23 moveto 
1 -1 scale
(zeta) t 
GR
GR
GS
[0.45 0 0 0.45 0 0] CT
0.149 GC
2 setlinecap
1 LJ
1.111 LW
N
121 623 M
121 52 L
S
GR
GS
[0.45 0 0 0.45 0 0] CT
0.149 GC
2 setlinecap
1 LJ
1.111 LW
N
844 623 M
844 52 L
S
GR
GS
[0.45 0 0 0.45 0 0] CT
0.149 GC
2 setlinecap
1 LJ
1.111 LW
N
121 623 M
128.23 623 L
S
GR
GS
[0.45 0 0 0.45 0 0] CT
0.149 GC
2 setlinecap
1 LJ
1.111 LW
N
121 527.833 M
128.23 527.833 L
S
GR
GS
[0.45 0 0 0.45 0 0] CT
0.149 GC
2 setlinecap
1 LJ
1.111 LW
N
121 432.667 M
128.23 432.667 L
S
GR
GS
[0.45 0 0 0.45 0 0] CT
0.149 GC
2 setlinecap
1 LJ
1.111 LW
N
121 337.5 M
128.23 337.5 L
S
GR
GS
[0.45 0 0 0.45 0 0] CT
0.149 GC
2 setlinecap
1 LJ
1.111 LW
N
121 242.333 M
128.23 242.333 L
S
GR
GS
[0.45 0 0 0.45 0 0] CT
0.149 GC
2 setlinecap
1 LJ
1.111 LW
N
121 147.167 M
128.23 147.167 L
S
GR
GS
[0.45 0 0 0.45 0 0] CT
0.149 GC
2 setlinecap
1 LJ
1.111 LW
N
121 52 M
128.23 52 L
S
GR
GS
[0.45 0 0 0.45 0 0] CT
0.149 GC
2 setlinecap
1 LJ
1.111 LW
N
844 623 M
836.77 623 L
S
GR
GS
[0.45 0 0 0.45 0 0] CT
0.149 GC
2 setlinecap
1 LJ
1.111 LW
N
844 527.833 M
836.77 527.833 L
S
GR
GS
[0.45 0 0 0.45 0 0] CT
0.149 GC
2 setlinecap
1 LJ
1.111 LW
N
844 432.667 M
836.77 432.667 L
S
GR
GS
[0.45 0 0 0.45 0 0] CT
0.149 GC
2 setlinecap
1 LJ
1.111 LW
N
844 337.5 M
836.77 337.5 L
S
GR
GS
[0.45 0 0 0.45 0 0] CT
0.149 GC
2 setlinecap
1 LJ
1.111 LW
N
844 242.333 M
836.77 242.333 L
S
GR
GS
[0.45 0 0 0.45 0 0] CT
0.149 GC
2 setlinecap
1 LJ
1.111 LW
N
844 147.167 M
836.77 147.167 L
S
GR
GS
[0.45 0 0 0.45 0 0] CT
0.149 GC
2 setlinecap
1 LJ
1.111 LW
N
844 52 M
836.77 52 L
S
GR
GS
[0.45 0 0 0.45 50.45 280.35] CT
0.149 GC
/Helvetica 22.222 F
GS
[1 0 0 1 0 0] CT
-36 7.5 moveto 
1 -1 scale
(0.4) t 
GR
GR
GS
[0.45 0 0 0.45 50.45 237.52499] CT
0.149 GC
/Helvetica 22.222 F
GS
[1 0 0 1 0 0] CT
-36 7.5 moveto 
1 -1 scale
(0.6) t 
GR
GR
GS
[0.45 0 0 0.45 50.45 194.7] CT
0.149 GC
/Helvetica 22.222 F
GS
[1 0 0 1 0 0] CT
-36 7.5 moveto 
1 -1 scale
(0.8) t 
GR
GR
GS
[0.45 0 0 0.45 50.45 151.875] CT
0.149 GC
/Helvetica 22.222 F
GS
[1 0 0 1 0 0] CT
-15 7.5 moveto 
1 -1 scale
(1) t 
GR
GR
GS
[0.45 0 0 0.45 50.45 109.04999] CT
0.149 GC
/Helvetica 22.222 F
GS
[1 0 0 1 0 0] CT
-36 7.5 moveto 
1 -1 scale
(1.2) t 
GR
GR
GS
[0.45 0 0 0.45 50.45 66.225] CT
0.149 GC
/Helvetica 22.222 F
GS
[1 0 0 1 0 0] CT
-36 7.5 moveto 
1 -1 scale
(1.4) t 
GR
GR
GS
[0.45 0 0 0.45 50.45 23.39999] CT
0.149 GC
/Helvetica 22.222 F
GS
[1 0 0 1 0 0] CT
-36 7.5 moveto 
1 -1 scale
(1.6) t 
GR
GR
GS
[0 -0.45 0.45 0 31.25 151.87488] CT
0.149 GC
/Helvetica 24.444 F
GS
[1 0 0 1 0 0] CT
-42.5 -6 moveto 
1 -1 scale
(BW/wn) t 
GR
GR
GS
[0.45 0 0 0.45 217.12522 22.16248] CT
/Helvetica-Bold 24.444 F
GS
[1 0 0 1 0 0] CT
-79 -6 moveto 
1 -1 scale
(BW/wn Plot) t 
GR
GR
GS
[0.45 0 0 0.45 0 0] CT
0 0.447 0.741 RC
1 LJ
1.111 LW
N
121 73.996 M
121.353 73.996 L
121.706 73.997 L
122.059 73.998 L
122.412 73.999 L
122.765 74 L
123.118 74.002 L
123.471 74.005 L
123.824 74.007 L
124.177 74.01 L
124.53 74.014 L
124.883 74.018 L
125.236 74.022 L
125.589 74.026 L
125.942 74.031 L
126.295 74.036 L
126.648 74.042 L
127.001 74.048 L
127.354 74.054 L
127.708 74.061 L
128.061 74.068 L
128.414 74.075 L
128.767 74.083 L
129.12 74.091 L
129.473 74.099 L
129.826 74.108 L
130.179 74.117 L
130.532 74.127 L
130.885 74.137 L
131.238 74.147 L
131.591 74.157 L
131.944 74.168 L
132.297 74.18 L
132.65 74.191 L
133.003 74.203 L
133.356 74.216 L
133.709 74.228 L
134.062 74.242 L
134.415 74.255 L
134.768 74.269 L
135.121 74.283 L
135.474 74.298 L
135.827 74.313 L
136.18 74.328 L
136.533 74.343 L
136.886 74.359 L
137.239 74.376 L
137.592 74.392 L
137.945 74.409 L
138.298 74.427 L
138.651 74.445 L
139.004 74.463 L
139.357 74.481 L
139.71 74.5 L
140.063 74.519 L
140.417 74.539 L
140.77 74.559 L
141.123 74.579 L
141.476 74.6 L
141.829 74.621 L
142.182 74.642 L
142.535 74.664 L
142.888 74.686 L
143.241 74.708 L
143.594 74.731 L
143.947 74.754 L
144.3 74.778 L
144.653 74.802 L
145.006 74.826 L
145.359 74.851 L
145.712 74.876 L
146.065 74.901 L
146.418 74.927 L
146.771 74.953 L
147.124 74.979 L
147.477 75.006 L
147.83 75.033 L
148.183 75.06 L
148.536 75.088 L
148.889 75.116 L
149.242 75.145 L
149.595 75.174 L
149.948 75.203 L
150.301 75.233 L
150.654 75.263 L
151.007 75.293 L
151.36 75.324 L
151.713 75.355 L
152.066 75.386 L
152.419 75.418 L
152.772 75.45 L
153.125 75.483 L
153.479 75.516 L
153.832 75.549 L
154.185 75.583 L
154.538 75.616 L
154.891 75.651 L
155.244 75.685 L
155.597 75.721 L
155.95 75.756 L
156.303 75.792 L
156.656 75.828 L
157.009 75.864 L
157.362 75.901 L
157.715 75.938 L
158.068 75.976 L
158.421 76.014 L
158.774 76.052 L
159.127 76.091 L
159.48 76.13 L
159.833 76.169 L
160.186 76.209 L
160.539 76.249 L
160.892 76.289 L
161.245 76.33 L
161.598 76.371 L
161.951 76.413 L
162.304 76.455 L
162.657 76.497 L
163.01 76.539 L
163.363 76.582 L
163.716 76.626 L
164.069 76.669 L
164.422 76.713 L
164.775 76.758 L
165.128 76.803 L
165.481 76.848 L
165.834 76.893 L
166.188 76.939 L
166.541 76.985 L
166.894 77.032 L
167.247 77.079 L
167.6 77.126 L
167.953 77.174 L
168.306 77.222 L
168.659 77.27 L
169.012 77.319 L
169.365 77.368 L
169.718 77.417 L
170.071 77.467 L
170.424 77.517 L
170.777 77.568 L
171.13 77.619 L
171.483 77.67 L
171.836 77.722 L
172.189 77.774 L
172.542 77.826 L
172.895 77.879 L
173.248 77.932 L
173.601 77.985 L
173.954 78.039 L
174.307 78.093 L
174.66 78.148 L
175.013 78.202 L
175.366 78.258 L
175.719 78.313 L
176.072 78.369 L
176.425 78.425 L
176.778 78.482 L
177.131 78.539 L
177.484 78.597 L
177.837 78.654 L
178.19 78.713 L
178.543 78.771 L
178.896 78.83 L
179.25 78.889 L
179.603 78.949 L
179.956 79.009 L
180.309 79.069 L
180.662 79.129 L
181.015 79.191 L
181.368 79.252 L
181.721 79.314 L
182.074 79.376 L
182.427 79.438 L
182.78 79.501 L
183.133 79.564 L
183.486 79.628 L
183.839 79.692 L
184.192 79.756 L
184.545 79.821 L
184.898 79.886 L
185.251 79.951 L
185.604 80.017 L
185.957 80.083 L
186.31 80.149 L
186.663 80.216 L
187.016 80.283 L
187.369 80.351 L
187.722 80.419 L
188.075 80.487 L
188.428 80.556 L
188.781 80.625 L
189.134 80.694 L
189.487 80.764 L
189.84 80.834 L
190.193 80.904 L
190.546 80.975 L
190.899 81.046 L
191.252 81.118 L
191.605 81.19 L
191.958 81.262 L
192.312 81.335 L
192.665 81.408 L
193.018 81.481 L
193.371 81.555 L
193.724 81.629 L
194.077 81.703 L
194.43 81.778 L
194.783 81.853 L
195.136 81.929 L
195.489 82.004 L
195.842 82.081 L
196.195 82.157 L
196.548 82.234 L
196.901 82.312 L
197.254 82.389 L
197.607 82.467 L
197.96 82.546 L
198.313 82.625 L
198.666 82.704 L
199.019 82.783 L
199.372 82.863 L
199.725 82.944 L
200.078 83.024 L
200.431 83.105 L
200.784 83.187 L
201.137 83.268 L
201.49 83.35 L
201.843 83.433 L
202.196 83.516 L
202.549 83.599 L
202.902 83.682 L
203.255 83.766 L
203.608 83.85 L
203.961 83.935 L
204.314 84.02 L
204.667 84.106 L
205.021 84.191 L
205.374 84.277 L
205.727 84.364 L
206.08 84.451 L
206.433 84.538 L
206.786 84.625 L
207.139 84.713 L
207.492 84.802 L
207.845 84.89 L
208.198 84.979 L
208.551 85.069 L
208.904 85.158 L
209.257 85.248 L
209.61 85.339 L
209.963 85.43 L
210.316 85.521 L
210.669 85.613 L
211.022 85.705 L
211.375 85.797 L
211.728 85.889 L
212.081 85.983 L
212.434 86.076 L
212.787 86.17 L
213.14 86.264 L
213.493 86.358 L
213.846 86.453 L
214.199 86.548 L
214.552 86.644 L
214.905 86.74 L
215.258 86.836 L
215.611 86.933 L
215.964 87.03 L
216.317 87.127 L
216.67 87.225 L
217.023 87.323 L
217.376 87.422 L
217.729 87.521 L
218.083 87.62 L
218.436 87.72 L
218.789 87.82 L
219.142 87.92 L
219.495 88.021 L
219.848 88.122 L
220.201 88.223 L
220.554 88.325 L
220.907 88.427 L
221.26 88.53 L
221.613 88.633 L
221.966 88.736 L
222.319 88.84 L
222.672 88.944 L
223.025 89.048 L
223.378 89.153 L
223.731 89.258 L
224.084 89.364 L
224.437 89.47 L
224.79 89.576 L
225.143 89.682 L
225.496 89.789 L
225.849 89.897 L
226.202 90.004 L
226.555 90.113 L
226.908 90.221 L
227.261 90.33 L
227.614 90.439 L
227.967 90.549 L
228.32 90.658 L
228.673 90.769 L
229.026 90.879 L
229.379 90.99 L
229.732 91.102 L
230.085 91.214 L
230.438 91.326 L
230.792 91.438 L
231.145 91.551 L
231.498 91.664 L
231.851 91.778 L
232.204 91.892 L
232.557 92.006 L
232.91 92.121 L
233.263 92.236 L
233.616 92.352 L
233.969 92.467 L
234.322 92.584 L
234.675 92.7 L
235.028 92.817 L
235.381 92.934 L
235.734 93.052 L
236.087 93.17 L
236.44 93.288 L
236.793 93.407 L
237.146 93.526 L
237.499 93.646 L
237.852 93.766 L
238.205 93.886 L
238.558 94.007 L
238.911 94.128 L
239.264 94.249 L
239.617 94.371 L
239.97 94.493 L
240.323 94.615 L
240.676 94.738 L
241.029 94.861 L
241.382 94.985 L
241.735 95.109 L
242.088 95.233 L
242.441 95.358 L
242.794 95.483 L
243.147 95.608 L
243.5 95.734 L
243.854 95.86 L
244.207 95.987 L
244.56 96.114 L
244.913 96.241 L
245.266 96.369 L
245.619 96.497 L
245.972 96.625 L
246.325 96.754 L
246.678 96.883 L
247.031 97.013 L
247.384 97.143 L
247.737 97.273 L
248.09 97.404 L
248.443 97.535 L
248.796 97.666 L
249.149 97.798 L
249.502 97.93 L
249.855 98.062 L
250.208 98.195 L
250.561 98.328 L
250.914 98.462 L
251.267 98.596 L
251.62 98.73 L
251.973 98.865 L
252.326 99 L
252.679 99.136 L
253.032 99.272 L
253.385 99.408 L
253.738 99.544 L
254.091 99.681 L
254.444 99.819 L
254.797 99.956 L
255.15 100.094 L
255.503 100.233 L
255.856 100.372 L
256.209 100.511 L
256.563 100.651 L
256.916 100.79 L
257.269 100.931 L
257.622 101.072 L
257.975 101.213 L
258.328 101.354 L
258.681 101.496 L
259.034 101.638 L
259.387 101.781 L
259.74 101.924 L
260.093 102.067 L
260.446 102.211 L
260.799 102.355 L
261.152 102.499 L
261.505 102.644 L
261.858 102.789 L
262.211 102.935 L
262.564 103.08 L
262.917 103.227 L
263.27 103.373 L
263.623 103.521 L
263.976 103.668 L
264.329 103.816 L
264.682 103.964 L
265.035 104.112 L
265.388 104.261 L
265.741 104.411 L
266.094 104.56 L
266.447 104.71 L
266.8 104.861 L
267.153 105.012 L
267.506 105.163 L
267.859 105.314 L
268.212 105.466 L
268.565 105.619 L
268.918 105.771 L
269.271 105.924 L
269.625 106.078 L
269.978 106.232 L
270.331 106.386 L
270.684 106.54 L
271.037 106.695 L
271.39 106.85 L
271.743 107.006 L
272.096 107.162 L
272.449 107.319 L
272.802 107.475 L
273.155 107.633 L
273.508 107.79 L
273.861 107.948 L
274.214 108.106 L
274.567 108.265 L
274.92 108.424 L
275.273 108.584 L
275.626 108.744 L
275.979 108.904 L
276.332 109.064 L
276.685 109.225 L
277.038 109.387 L
277.391 109.548 L
277.744 109.71 L
278.097 109.873 L
278.45 110.036 L
278.803 110.199 L
279.156 110.362 L
279.509 110.526 L
279.862 110.691 L
280.215 110.855 L
280.568 111.021 L
280.921 111.186 L
281.274 111.352 L
281.627 111.518 L
281.98 111.685 L
282.333 111.852 L
282.687 112.019 L
283.04 112.187 L
283.393 112.355 L
283.746 112.523 L
284.099 112.692 L
284.452 112.862 L
284.805 113.031 L
285.158 113.201 L
285.511 113.372 L
285.864 113.542 L
286.217 113.714 L
286.57 113.885 L
286.923 114.057 L
287.276 114.229 L
287.629 114.402 L
287.982 114.575 L
288.335 114.748 L
288.688 114.922 L
289.041 115.096 L
289.394 115.271 L
289.747 115.446 L
290.1 115.621 L
290.453 115.797 L
290.806 115.973 L
291.159 116.149 L
291.512 116.326 L
291.865 116.503 L
292.218 116.681 L
292.571 116.859 L
292.924 117.037 L
293.277 117.216 L
293.63 117.395 L
293.983 117.575 L
294.336 117.754 L
294.689 117.935 L
295.042 118.115 L
295.396 118.296 L
295.749 118.478 L
296.102 118.659 L
296.455 118.842 L
296.808 119.024 L
297.161 119.207 L
297.514 119.39 L
297.867 119.574 L
298.22 119.758 L
298.573 119.942 L
298.926 120.127 L
299.279 120.312 L
299.632 120.498 L
299.985 120.684 L
300.338 120.87 L
300.691 121.057 L
301.044 121.244 L
301.397 121.432 L
301.75 121.619 L
302.103 121.808 L
302.456 121.996 L
302.809 122.185 L
303.162 122.375 L
303.515 122.564 L
303.868 122.755 L
304.221 122.945 L
304.574 123.136 L
304.927 123.327 L
305.28 123.519 L
305.633 123.711 L
305.986 123.903 L
306.339 124.096 L
306.692 124.289 L
307.045 124.483 L
307.398 124.677 L
307.751 124.871 L
308.104 125.066 L
308.458 125.261 L
308.811 125.457 L
309.164 125.652 L
309.517 125.849 L
309.87 126.045 L
310.223 126.242 L
310.576 126.44 L
310.929 126.637 L
311.282 126.836 L
311.635 127.034 L
311.988 127.233 L
312.341 127.432 L
312.694 127.632 L
313.047 127.832 L
313.4 128.033 L
313.753 128.233 L
314.106 128.435 L
314.459 128.636 L
314.812 128.838 L
315.165 129.041 L
315.518 129.243 L
315.871 129.447 L
316.224 129.65 L
316.577 129.854 L
316.93 130.058 L
317.283 130.263 L
317.636 130.468 L
317.989 130.673 L
318.342 130.879 L
318.695 131.085 L
319.048 131.292 L
319.401 131.499 L
319.754 131.706 L
320.107 131.914 L
320.46 132.122 L
320.813 132.331 L
321.167 132.539 L
321.52 132.749 L
321.873 132.958 L
322.226 133.168 L
322.579 133.379 L
322.932 133.59 L
323.285 133.801 L
323.638 134.012 L
323.991 134.224 L
324.344 134.437 L
324.697 134.649 L
325.05 134.862 L
325.403 135.076 L
325.756 135.29 L
326.109 135.504 L
326.462 135.719 L
326.815 135.934 L
327.168 136.149 L
327.521 136.365 L
327.874 136.581 L
328.227 136.798 L
328.58 137.014 L
328.933 137.232 L
329.286 137.45 L
329.639 137.668 L
329.992 137.886 L
330.345 138.105 L
330.698 138.324 L
331.051 138.544 L
331.404 138.764 L
331.757 138.984 L
332.11 139.205 L
332.463 139.426 L
332.816 139.648 L
333.169 139.87 L
333.522 140.092 L
333.875 140.315 L
334.229 140.538 L
334.582 140.761 L
334.935 140.985 L
335.288 141.209 L
335.641 141.434 L
335.994 141.659 L
336.347 141.884 L
336.7 142.11 L
337.053 142.336 L
337.406 142.563 L
337.759 142.79 L
338.112 143.017 L
338.465 143.245 L
338.818 143.473 L
339.171 143.701 L
339.524 143.93 L
339.877 144.159 L
340.23 144.389 L
340.583 144.619 L
340.936 144.849 L
341.289 145.08 L
341.642 145.311 L
341.995 145.543 L
342.348 145.775 L
342.701 146.007 L
343.054 146.24 L
343.407 146.473 L
343.76 146.706 L
344.113 146.94 L
344.466 147.175 L
344.819 147.409 L
345.172 147.644 L
345.525 147.88 L
345.878 148.115 L
346.231 148.352 L
346.584 148.588 L
346.938 148.825 L
347.291 149.062 L
347.644 149.3 L
347.997 149.538 L
348.35 149.777 L
348.703 150.015 L
349.056 150.255 L
349.409 150.494 L
349.762 150.734 L
350.115 150.975 L
350.468 151.215 L
350.821 151.457 L
351.174 151.698 L
351.527 151.94 L
351.88 152.182 L
352.233 152.425 L
352.586 152.668 L
352.939 152.912 L
353.292 153.156 L
353.645 153.4 L
353.998 153.644 L
354.351 153.889 L
354.704 154.135 L
355.057 154.381 L
355.41 154.627 L
355.763 154.873 L
356.116 155.12 L
356.469 155.368 L
356.822 155.615 L
357.175 155.863 L
357.528 156.112 L
357.881 156.361 L
358.234 156.61 L
358.587 156.86 L
358.94 157.109 L
359.293 157.36 L
359.646 157.611 L
360 157.862 L
360.353 158.113 L
360.706 158.365 L
361.059 158.618 L
361.412 158.87 L
361.765 159.123 L
362.118 159.377 L
362.471 159.631 L
362.824 159.885 L
363.177 160.139 L
363.53 160.394 L
363.883 160.65 L
364.236 160.906 L
364.589 161.162 L
364.942 161.418 L
365.295 161.675 L
365.648 161.932 L
366.001 162.19 L
366.354 162.448 L
366.707 162.707 L
367.06 162.965 L
367.413 163.225 L
367.766 163.484 L
368.119 163.744 L
368.472 164.005 L
368.825 164.265 L
369.178 164.526 L
369.531 164.788 L
369.884 165.05 L
370.237 165.312 L
370.59 165.575 L
370.943 165.838 L
371.296 166.101 L
371.649 166.365 L
372.002 166.629 L
372.355 166.894 L
372.708 167.159 L
373.062 167.424 L
373.415 167.69 L
373.768 167.956 L
374.121 168.222 L
374.474 168.489 L
374.827 168.756 L
375.18 169.024 L
375.533 169.292 L
375.886 169.56 L
376.239 169.829 L
376.592 170.098 L
376.945 170.368 L
377.298 170.638 L
377.651 170.908 L
378.004 171.179 L
378.357 171.45 L
378.71 171.721 L
379.063 171.993 L
379.416 172.265 L
379.769 172.538 L
380.122 172.81 L
380.475 173.084 L
380.828 173.357 L
381.181 173.632 L
381.534 173.906 L
381.887 174.181 L
382.24 174.456 L
382.593 174.732 L
382.946 175.008 L
383.299 175.284 L
383.652 175.561 L
384.005 175.838 L
384.358 176.115 L
384.711 176.393 L
385.064 176.671 L
385.417 176.95 L
385.771 177.229 L
386.124 177.508 L
386.477 177.788 L
386.83 178.068 L
387.183 178.349 L
387.536 178.63 L
387.889 178.911 L
388.242 179.193 L
388.595 179.475 L
388.948 179.757 L
389.301 180.04 L
389.654 180.323 L
390.007 180.607 L
390.36 180.89 L
390.713 181.175 L
391.066 181.459 L
391.419 181.744 L
391.772 182.03 L
392.125 182.316 L
392.478 182.602 L
392.831 182.888 L
393.184 183.175 L
393.537 183.462 L
393.89 183.75 L
394.243 184.038 L
394.596 184.327 L
394.949 184.615 L
395.302 184.904 L
395.655 185.194 L
396.008 185.484 L
396.361 185.774 L
396.714 186.065 L
397.067 186.356 L
397.42 186.647 L
397.773 186.939 L
398.126 187.231 L
398.479 187.524 L
398.833 187.817 L
399.186 188.11 L
399.539 188.403 L
399.892 188.697 L
400.245 188.992 L
400.598 189.287 L
400.951 189.582 L
401.304 189.877 L
401.657 190.173 L
402.01 190.469 L
402.363 190.766 L
402.716 191.063 L
403.069 191.36 L
403.422 191.658 L
403.775 191.956 L
404.128 192.254 L
404.481 192.553 L
404.834 192.852 L
405.187 193.152 L
405.54 193.452 L
405.893 193.752 L
406.246 194.053 L
406.599 194.354 L
406.952 194.655 L
407.305 194.957 L
407.658 195.259 L
408.011 195.562 L
408.364 195.864 L
408.717 196.168 L
409.07 196.471 L
409.423 196.775 L
409.776 197.079 L
410.129 197.384 L
410.482 197.689 L
410.835 197.995 L
411.188 198.3 L
411.542 198.606 L
411.895 198.913 L
412.248 199.22 L
412.601 199.527 L
412.954 199.835 L
413.307 200.143 L
413.66 200.451 L
414.013 200.76 L
414.366 201.069 L
414.719 201.378 L
415.072 201.688 L
415.425 201.998 L
415.778 202.308 L
416.131 202.619 L
416.484 202.93 L
416.837 203.242 L
417.19 203.554 L
417.543 203.866 L
417.896 204.179 L
418.249 204.492 L
418.602 204.805 L
418.955 205.119 L
419.308 205.433 L
419.661 205.747 L
420.014 206.062 L
420.367 206.377 L
420.72 206.693 L
421.073 207.009 L
421.426 207.325 L
421.779 207.641 L
422.132 207.958 L
422.485 208.276 L
422.838 208.593 L
423.191 208.911 L
423.544 209.229 L
423.897 209.548 L
424.25 209.867 L
424.604 210.187 L
424.957 210.506 L
425.31 210.826 L
425.663 211.147 L
426.016 211.468 L
426.369 211.789 L
426.722 212.11 L
427.075 212.432 L
427.428 212.754 L
427.781 213.077 L
428.134 213.4 L
428.487 213.723 L
428.84 214.047 L
429.193 214.37 L
429.546 214.695 L
429.899 215.019 L
430.252 215.344 L
430.605 215.67 L
430.958 215.995 L
431.311 216.321 L
431.664 216.648 L
432.017 216.974 L
432.37 217.301 L
432.723 217.629 L
433.076 217.956 L
433.429 218.285 L
433.782 218.613 L
434.135 218.942 L
434.488 219.271 L
434.841 219.6 L
435.194 219.93 L
435.547 220.26 L
435.9 220.591 L
436.253 220.921 L
436.606 221.252 L
436.959 221.584 L
437.313 221.916 L
437.666 222.248 L
438.019 222.58 L
438.372 222.913 L
438.725 223.246 L
439.078 223.58 L
439.431 223.914 L
439.784 224.248 L
440.137 224.582 L
440.49 224.917 L
440.843 225.252 L
441.196 225.588 L
441.549 225.923 L
441.902 226.26 L
442.255 226.596 L
442.608 226.933 L
442.961 227.27 L
443.314 227.607 L
443.667 227.945 L
444.02 228.283 L
444.373 228.622 L
444.726 228.961 L
445.079 229.3 L
445.432 229.639 L
445.785 229.979 L
446.138 230.319 L
446.491 230.659 L
446.844 231 L
447.197 231.341 L
447.55 231.682 L
447.903 232.024 L
448.256 232.366 L
448.609 232.708 L
448.962 233.051 L
449.315 233.394 L
449.668 233.737 L
450.021 234.081 L
450.375 234.425 L
450.728 234.769 L
451.081 235.114 L
451.434 235.458 L
451.787 235.804 L
452.14 236.149 L
452.493 236.495 L
452.846 236.841 L
453.199 237.187 L
453.552 237.534 L
453.905 237.881 L
454.258 238.229 L
454.611 238.576 L
454.964 238.924 L
455.317 239.273 L
455.67 239.621 L
456.023 239.97 L
456.376 240.319 L
456.729 240.669 L
457.082 241.019 L
457.435 241.369 L
457.788 241.719 L
458.141 242.07 L
458.494 242.421 L
458.847 242.772 L
459.2 243.124 L
459.553 243.476 L
459.906 243.828 L
460.259 244.181 L
460.612 244.534 L
460.965 244.887 L
461.318 245.24 L
461.671 245.594 L
462.024 245.948 L
462.377 246.302 L
462.73 246.657 L
463.083 247.012 L
463.437 247.367 L
463.79 247.723 L
464.143 248.078 L
464.496 248.434 L
464.849 248.791 L
465.202 249.148 L
465.555 249.504 L
465.908 249.862 L
466.261 250.219 L
466.614 250.577 L
466.967 250.935 L
467.32 251.294 L
467.673 251.652 L
468.026 252.011 L
468.379 252.37 L
468.732 252.73 L
469.085 253.09 L
469.438 253.45 L
469.791 253.81 L
470.144 254.171 L
470.497 254.532 L
470.85 254.893 L
471.203 255.254 L
471.556 255.616 L
471.909 255.978 L
472.262 256.34 L
472.615 256.703 L
472.968 257.066 L
473.321 257.429 L
473.674 257.792 L
474.027 258.156 L
474.38 258.52 L
474.733 258.884 L
475.086 259.248 L
475.439 259.613 L
475.792 259.978 L
476.146 260.343 L
476.499 260.709 L
476.852 261.074 L
477.205 261.44 L
477.558 261.807 L
477.911 262.173 L
478.264 262.54 L
478.617 262.907 L
478.97 263.274 L
479.323 263.642 L
479.676 264.01 L
480.029 264.378 L
480.382 264.746 L
480.735 265.115 L
481.088 265.484 L
481.441 265.853 L
481.794 266.222 L
482.147 266.592 L
482.5 266.961 L
482.853 267.331 L
483.206 267.702 L
483.559 268.072 L
483.912 268.443 L
484.265 268.814 L
484.618 269.185 L
484.971 269.557 L
485.324 269.929 L
485.677 270.301 L
486.03 270.673 L
486.383 271.045 L
486.736 271.418 L
487.089 271.791 L
487.442 272.164 L
487.795 272.538 L
488.148 272.911 L
488.501 273.285 L
488.854 273.659 L
489.208 274.033 L
489.561 274.408 L
489.914 274.783 L
490.267 275.158 L
490.62 275.533 L
490.973 275.908 L
491.326 276.284 L
491.679 276.66 L
492.032 277.036 L
492.385 277.412 L
492.738 277.789 L
493.091 278.166 L
493.444 278.543 L
493.797 278.92 L
494.15 279.297 L
494.503 279.675 L
494.856 280.053 L
495.209 280.431 L
495.562 280.809 L
495.915 281.187 L
496.268 281.566 L
496.621 281.945 L
496.974 282.324 L
497.327 282.703 L
497.68 283.083 L
498.033 283.462 L
498.386 283.842 L
498.739 284.222 L
499.092 284.602 L
499.445 284.983 L
499.798 285.363 L
500.151 285.744 L
500.504 286.125 L
500.857 286.506 L
501.21 286.888 L
501.563 287.269 L
501.917 287.651 L
502.27 288.033 L
502.623 288.415 L
502.976 288.798 L
503.329 289.18 L
503.682 289.563 L
504.035 289.946 L
504.388 290.329 L
504.741 290.712 L
505.094 291.095 L
505.447 291.479 L
505.8 291.863 L
506.153 292.247 L
506.506 292.631 L
506.859 293.015 L
507.212 293.399 L
507.565 293.784 L
507.918 294.169 L
508.271 294.554 L
508.624 294.939 L
508.977 295.324 L
509.33 295.709 L
509.683 296.095 L
510.036 296.481 L
510.389 296.867 L
510.742 297.253 L
511.095 297.639 L
511.448 298.025 L
511.801 298.412 L
512.154 298.798 L
512.507 299.185 L
512.86 299.572 L
513.213 299.959 L
513.566 300.346 L
513.919 300.734 L
514.272 301.121 L
514.625 301.509 L
514.979 301.897 L
515.332 302.285 L
515.685 302.673 L
516.038 303.061 L
516.391 303.449 L
516.744 303.838 L
517.097 304.226 L
517.45 304.615 L
517.803 305.004 L
518.156 305.393 L
518.509 305.782 L
518.862 306.171 L
519.215 306.561 L
519.568 306.95 L
519.921 307.34 L
520.274 307.729 L
520.627 308.119 L
520.98 308.509 L
521.333 308.899 L
521.686 309.29 L
522.039 309.68 L
522.392 310.07 L
522.745 310.461 L
523.098 310.851 L
523.451 311.242 L
523.804 311.633 L
524.157 312.024 L
524.51 312.415 L
524.863 312.806 L
525.216 313.197 L
525.569 313.588 L
525.922 313.98 L
526.275 314.371 L
526.628 314.763 L
526.981 315.155 L
527.334 315.546 L
527.688 315.938 L
528.041 316.33 L
528.394 316.722 L
528.747 317.114 L
529.1 317.507 L
529.453 317.899 L
529.806 318.291 L
530.159 318.684 L
530.512 319.076 L
530.865 319.469 L
531.218 319.861 L
531.571 320.254 L
531.924 320.647 L
532.277 321.04 L
532.63 321.433 L
532.983 321.826 L
533.336 322.219 L
533.689 322.612 L
534.042 323.005 L
534.395 323.398 L
534.748 323.792 L
535.101 324.185 L
535.454 324.578 L
535.807 324.972 L
536.16 325.365 L
536.513 325.759 L
536.866 326.152 L
537.219 326.546 L
537.572 326.94 L
537.925 327.334 L
538.278 327.727 L
538.631 328.121 L
538.984 328.515 L
539.337 328.909 L
539.69 329.303 L
540.043 329.697 L
540.396 330.091 L
540.75 330.485 L
541.103 330.879 L
541.456 331.273 L
541.809 331.667 L
542.162 332.061 L
542.515 332.455 L
542.868 332.85 L
543.221 333.244 L
543.574 333.638 L
543.927 334.032 L
544.28 334.426 L
544.633 334.821 L
544.986 335.215 L
545.339 335.609 L
545.692 336.003 L
546.045 336.398 L
546.398 336.792 L
546.751 337.186 L
547.104 337.581 L
547.457 337.975 L
547.81 338.369 L
548.163 338.763 L
548.516 339.158 L
548.869 339.552 L
549.222 339.946 L
549.575 340.341 L
549.928 340.735 L
550.281 341.129 L
550.634 341.523 L
550.987 341.917 L
551.34 342.312 L
551.693 342.706 L
552.046 343.1 L
552.399 343.494 L
552.752 343.888 L
553.105 344.282 L
553.458 344.676 L
553.812 345.07 L
554.165 345.464 L
554.518 345.858 L
554.871 346.252 L
555.224 346.646 L
555.577 347.04 L
555.93 347.434 L
556.283 347.827 L
556.636 348.221 L
556.989 348.615 L
557.342 349.008 L
557.695 349.402 L
558.048 349.795 L
558.401 350.189 L
558.754 350.582 L
559.107 350.976 L
559.46 351.369 L
559.813 351.762 L
560.166 352.155 L
560.519 352.549 L
560.872 352.942 L
561.225 353.335 L
561.578 353.728 L
561.931 354.121 L
562.284 354.513 L
562.637 354.906 L
562.99 355.299 L
563.343 355.691 L
563.696 356.084 L
564.049 356.476 L
564.402 356.869 L
564.755 357.261 L
565.108 357.653 L
565.461 358.045 L
565.814 358.437 L
566.167 358.829 L
566.521 359.221 L
566.874 359.613 L
567.227 360.004 L
567.58 360.396 L
567.933 360.787 L
568.286 361.179 L
568.639 361.57 L
568.992 361.961 L
569.345 362.352 L
569.698 362.743 L
570.051 363.134 L
570.404 363.525 L
570.757 363.916 L
571.11 364.306 L
571.463 364.696 L
571.816 365.087 L
572.169 365.477 L
572.522 365.867 L
572.875 366.257 L
573.228 366.647 L
573.581 367.037 L
573.934 367.426 L
574.287 367.816 L
574.64 368.205 L
574.993 368.594 L
575.346 368.983 L
575.699 369.372 L
576.052 369.761 L
576.405 370.15 L
576.758 370.538 L
577.111 370.927 L
577.464 371.315 L
577.817 371.703 L
578.17 372.091 L
578.523 372.479 L
578.876 372.867 L
579.229 373.254 L
579.583 373.642 L
579.936 374.029 L
580.289 374.416 L
580.642 374.803 L
580.995 375.19 L
581.348 375.577 L
581.701 375.963 L
582.054 376.349 L
582.407 376.736 L
582.76 377.122 L
583.113 377.507 L
583.466 377.893 L
583.819 378.279 L
584.172 378.664 L
584.525 379.049 L
584.878 379.434 L
585.231 379.819 L
585.584 380.204 L
585.937 380.588 L
586.29 380.972 L
586.643 381.356 L
586.996 381.74 L
587.349 382.124 L
587.702 382.508 L
588.055 382.891 L
588.408 383.274 L
588.761 383.657 L
589.114 384.04 L
589.467 384.423 L
589.82 384.805 L
590.173 385.188 L
590.526 385.57 L
590.879 385.951 L
591.232 386.333 L
591.585 386.715 L
591.938 387.096 L
592.292 387.477 L
592.645 387.858 L
592.998 388.238 L
593.351 388.619 L
593.704 388.999 L
594.057 389.379 L
594.41 389.759 L
594.763 390.138 L
595.116 390.518 L
595.469 390.897 L
595.822 391.276 L
596.175 391.655 L
596.528 392.033 L
596.881 392.411 L
597.234 392.789 L
597.587 393.167 L
597.94 393.545 L
598.293 393.922 L
598.646 394.299 L
598.999 394.676 L
599.352 395.053 L
599.705 395.43 L
600.058 395.806 L
600.411 396.182 L
600.764 396.558 L
601.117 396.933 L
601.47 397.308 L
601.823 397.683 L
602.176 398.058 L
602.529 398.433 L
602.882 398.807 L
603.235 399.181 L
603.588 399.555 L
603.941 399.929 L
604.294 400.302 L
604.647 400.675 L
605 401.048 L
605.354 401.42 L
605.707 401.793 L
606.06 402.165 L
606.413 402.537 L
606.766 402.908 L
607.119 403.279 L
607.472 403.65 L
607.825 404.021 L
608.178 404.392 L
608.531 404.762 L
608.884 405.132 L
609.237 405.502 L
609.59 405.871 L
609.943 406.24 L
610.296 406.609 L
610.649 406.978 L
611.002 407.346 L
611.355 407.714 L
611.708 408.082 L
612.061 408.45 L
612.414 408.817 L
612.767 409.184 L
613.12 409.55 L
613.473 409.917 L
613.826 410.283 L
614.179 410.649 L
614.532 411.014 L
614.885 411.38 L
615.238 411.745 L
615.591 412.109 L
615.944 412.474 L
616.297 412.838 L
616.65 413.202 L
617.003 413.565 L
617.356 413.929 L
617.709 414.291 L
618.063 414.654 L
618.416 415.017 L
618.769 415.379 L
619.122 415.74 L
619.475 416.102 L
619.828 416.463 L
620.181 416.824 L
620.534 417.184 L
620.887 417.545 L
621.24 417.905 L
621.593 418.264 L
621.946 418.624 L
622.299 418.983 L
622.652 419.341 L
623.005 419.7 L
623.358 420.058 L
623.711 420.416 L
624.064 420.773 L
624.417 421.13 L
624.77 421.487 L
625.123 421.844 L
625.476 422.2 L
625.829 422.556 L
626.182 422.912 L
626.535 423.267 L
626.888 423.622 L
627.241 423.976 L
627.594 424.331 L
627.947 424.685 L
628.3 425.038 L
628.653 425.392 L
629.006 425.745 L
629.359 426.097 L
629.712 426.45 L
630.065 426.802 L
630.418 427.154 L
630.771 427.505 L
631.125 427.856 L
631.478 428.207 L
631.831 428.557 L
632.184 428.907 L
632.537 429.257 L
632.89 429.606 L
633.243 429.955 L
633.596 430.304 L
633.949 430.652 L
634.302 431.001 L
634.655 431.348 L
635.008 431.696 L
635.361 432.043 L
635.714 432.389 L
636.067 432.736 L
636.42 433.082 L
636.773 433.427 L
637.126 433.773 L
637.479 434.118 L
637.832 434.462 L
638.185 434.807 L
638.538 435.151 L
638.891 435.494 L
639.244 435.837 L
639.597 436.18 L
639.95 436.523 L
640.303 436.865 L
640.656 437.207 L
641.009 437.548 L
641.362 437.89 L
641.715 438.23 L
642.068 438.571 L
642.421 438.911 L
642.774 439.251 L
643.127 439.59 L
643.48 439.929 L
643.833 440.268 L
644.187 440.606 L
644.54 440.944 L
644.893 441.282 L
645.246 441.619 L
645.599 441.956 L
645.952 442.292 L
646.305 442.628 L
646.658 442.964 L
647.011 443.3 L
647.364 443.635 L
647.717 443.97 L
648.07 444.304 L
648.423 444.638 L
648.776 444.972 L
649.129 445.305 L
649.482 445.638 L
649.835 445.97 L
650.188 446.303 L
650.541 446.634 L
650.894 446.966 L
651.247 447.297 L
651.6 447.628 L
651.953 447.958 L
652.306 448.288 L
652.659 448.618 L
653.012 448.947 L
653.365 449.276 L
653.718 449.604 L
654.071 449.932 L
654.424 450.26 L
654.777 450.588 L
655.13 450.915 L
655.483 451.241 L
655.836 451.568 L
656.189 451.894 L
656.542 452.219 L
656.896 452.544 L
657.249 452.869 L
657.602 453.193 L
657.955 453.518 L
658.308 453.841 L
658.661 454.164 L
659.014 454.487 L
659.367 454.81 L
659.72 455.132 L
660.073 455.454 L
660.426 455.775 L
660.779 456.096 L
661.132 456.417 L
661.485 456.737 L
661.838 457.057 L
662.191 457.377 L
662.544 457.696 L
662.897 458.015 L
663.25 458.333 L
663.603 458.651 L
663.956 458.969 L
664.309 459.286 L
664.662 459.603 L
665.015 459.92 L
665.368 460.236 L
665.721 460.551 L
666.074 460.867 L
666.427 461.182 L
666.78 461.496 L
667.133 461.811 L
667.486 462.124 L
667.839 462.438 L
668.192 462.751 L
668.545 463.064 L
668.898 463.376 L
669.251 463.688 L
669.604 464 L
669.958 464.311 L
670.311 464.621 L
670.664 464.932 L
671.017 465.242 L
671.37 465.552 L
671.723 465.861 L
672.076 466.17 L
672.429 466.478 L
672.782 466.786 L
673.135 467.094 L
673.488 467.401 L
673.841 467.708 L
674.194 468.015 L
674.547 468.321 L
674.9 468.627 L
675.253 468.932 L
675.606 469.237 L
675.959 469.542 L
676.312 469.846 L
676.665 470.15 L
677.018 470.454 L
677.371 470.757 L
677.724 471.06 L
678.077 471.362 L
678.43 471.664 L
678.783 471.965 L
679.136 472.267 L
679.489 472.567 L
679.842 472.868 L
680.195 473.168 L
680.548 473.468 L
680.901 473.767 L
681.254 474.066 L
681.607 474.364 L
681.96 474.662 L
682.313 474.96 L
682.667 475.257 L
683.02 475.554 L
683.373 475.851 L
683.726 476.147 L
684.079 476.443 L
684.432 476.738 L
684.785 477.033 L
685.138 477.328 L
685.491 477.622 L
685.844 477.916 L
686.197 478.21 L
686.55 478.503 L
686.903 478.796 L
687.256 479.088 L
687.609 479.38 L
687.962 479.671 L
688.315 479.963 L
688.668 480.253 L
689.021 480.544 L
689.374 480.834 L
689.727 481.124 L
690.08 481.413 L
690.433 481.702 L
690.786 481.99 L
691.139 482.278 L
691.492 482.566 L
691.845 482.854 L
692.198 483.141 L
692.551 483.427 L
692.904 483.713 L
693.257 483.999 L
693.61 484.285 L
693.963 484.57 L
694.316 484.854 L
694.669 485.139 L
695.022 485.423 L
695.375 485.706 L
695.729 485.989 L
696.082 486.272 L
696.435 486.555 L
696.788 486.837 L
697.141 487.118 L
697.494 487.4 L
697.847 487.68 L
698.2 487.961 L
698.553 488.241 L
698.906 488.521 L
699.259 488.8 L
699.612 489.079 L
699.965 489.358 L
700.318 489.636 L
700.671 489.914 L
701.024 490.191 L
701.377 490.468 L
701.73 490.745 L
702.083 491.021 L
702.436 491.297 L
702.789 491.573 L
703.142 491.848 L
703.495 492.123 L
703.848 492.397 L
704.201 492.671 L
704.554 492.945 L
704.907 493.219 L
705.26 493.491 L
705.613 493.764 L
705.966 494.036 L
706.319 494.308 L
706.672 494.579 L
707.025 494.851 L
707.378 495.121 L
707.731 495.392 L
708.084 495.662 L
708.438 495.931 L
708.791 496.2 L
709.144 496.469 L
709.497 496.738 L
709.85 497.006 L
710.203 497.273 L
710.556 497.541 L
710.909 497.808 L
711.262 498.074 L
711.615 498.341 L
711.968 498.606 L
712.321 498.872 L
712.674 499.137 L
713.027 499.402 L
713.38 499.666 L
713.733 499.93 L
714.086 500.194 L
714.439 500.457 L
714.792 500.72 L
715.145 500.983 L
715.498 501.245 L
715.851 501.507 L
716.204 501.768 L
716.557 502.029 L
716.91 502.29 L
717.263 502.55 L
717.616 502.81 L
717.969 503.07 L
718.322 503.329 L
718.675 503.588 L
719.028 503.846 L
719.381 504.105 L
719.734 504.362 L
720.087 504.62 L
720.44 504.877 L
720.793 505.134 L
721.146 505.39 L
721.5 505.646 L
721.853 505.902 L
722.206 506.157 L
722.559 506.412 L
722.912 506.666 L
723.265 506.92 L
723.618 507.174 L
723.971 507.428 L
724.324 507.681 L
724.677 507.934 L
725.03 508.186 L
725.383 508.438 L
725.736 508.69 L
726.089 508.941 L
726.442 509.192 L
726.795 509.443 L
727.148 509.693 L
727.501 509.943 L
727.854 510.192 L
728.207 510.441 L
728.56 510.69 L
728.913 510.939 L
729.266 511.187 L
729.619 511.435 L
729.972 511.682 L
730.325 511.929 L
730.678 512.176 L
731.031 512.422 L
731.384 512.668 L
731.737 512.914 L
732.09 513.159 L
732.443 513.404 L
732.796 513.649 L
733.149 513.893 L
733.502 514.137 L
733.855 514.381 L
734.208 514.624 L
734.562 514.867 L
734.915 515.109 L
735.268 515.352 L
735.621 515.593 L
735.974 515.835 L
736.327 516.076 L
736.68 516.317 L
737.033 516.557 L
737.386 516.797 L
737.739 517.037 L
738.092 517.277 L
738.445 517.516 L
738.798 517.754 L
739.151 517.993 L
739.504 518.231 L
739.857 518.469 L
740.21 518.706 L
740.563 518.943 L
740.916 519.18 L
741.269 519.416 L
741.622 519.652 L
741.975 519.888 L
742.328 520.123 L
742.681 520.358 L
743.034 520.593 L
743.387 520.827 L
743.74 521.061 L
744.093 521.295 L
744.446 521.528 L
744.799 521.761 L
745.152 521.994 L
745.505 522.226 L
745.858 522.458 L
746.211 522.69 L
746.564 522.921 L
746.917 523.152 L
747.271 523.383 L
747.624 523.613 L
747.977 523.843 L
748.33 524.073 L
748.683 524.302 L
749.036 524.531 L
749.389 524.76 L
749.742 524.988 L
750.095 525.216 L
750.448 525.444 L
750.801 525.672 L
751.154 525.899 L
751.507 526.125 L
751.86 526.352 L
752.213 526.578 L
752.566 526.804 L
752.919 527.029 L
753.272 527.254 L
753.625 527.479 L
753.978 527.703 L
754.331 527.928 L
754.684 528.151 L
755.037 528.375 L
755.39 528.598 L
755.743 528.821 L
756.096 529.043 L
756.449 529.266 L
756.802 529.488 L
757.155 529.709 L
757.508 529.93 L
757.861 530.151 L
758.214 530.372 L
758.567 530.592 L
758.92 530.812 L
759.273 531.032 L
759.626 531.251 L
759.979 531.47 L
760.333 531.689 L
760.686 531.907 L
761.039 532.126 L
761.392 532.343 L
761.745 532.561 L
762.098 532.778 L
762.451 532.995 L
762.804 533.211 L
763.157 533.428 L
763.51 533.643 L
763.863 533.859 L
764.216 534.074 L
764.569 534.289 L
764.922 534.504 L
765.275 534.719 L
765.628 534.933 L
765.981 535.146 L
766.334 535.36 L
766.687 535.573 L
767.04 535.786 L
767.393 535.998 L
767.746 536.211 L
768.099 536.422 L
768.452 536.634 L
768.805 536.845 L
769.158 537.056 L
769.511 537.267 L
769.864 537.478 L
770.217 537.688 L
770.57 537.897 L
770.923 538.107 L
771.276 538.316 L
771.629 538.525 L
771.982 538.734 L
772.335 538.942 L
772.688 539.15 L
773.042 539.358 L
773.395 539.565 L
773.748 539.772 L
774.101 539.979 L
774.454 540.186 L
774.807 540.392 L
775.16 540.598 L
775.513 540.804 L
775.866 541.009 L
776.219 541.214 L
776.572 541.419 L
776.925 541.623 L
777.278 541.827 L
777.631 542.031 L
777.984 542.235 L
778.337 542.438 L
778.69 542.641 L
779.043 542.844 L
779.396 543.046 L
779.749 543.249 L
780.102 543.45 L
780.455 543.652 L
780.808 543.853 L
781.161 544.054 L
781.514 544.255 L
781.867 544.455 L
782.22 544.656 L
782.573 544.855 L
782.926 545.055 L
783.279 545.254 L
783.632 545.453 L
783.985 545.652 L
784.338 545.851 L
784.691 546.049 L
785.044 546.247 L
785.397 546.444 L
785.75 546.641 L
786.104 546.839 L
786.457 547.035 L
786.81 547.232 L
787.163 547.428 L
787.516 547.624 L
787.869 547.82 L
788.222 548.015 L
788.575 548.21 L
788.928 548.405 L
789.281 548.599 L
789.634 548.794 L
789.987 548.988 L
790.34 549.181 L
790.693 549.375 L
791.046 549.568 L
791.399 549.761 L
791.752 549.953 L
792.105 550.146 L
792.458 550.338 L
792.811 550.53 L
793.164 550.721 L
793.517 550.912 L
793.87 551.103 L
794.223 551.294 L
794.576 551.485 L
794.929 551.675 L
795.282 551.865 L
795.635 552.054 L
795.988 552.244 L
796.341 552.433 L
796.694 552.622 L
797.047 552.81 L
797.4 552.999 L
797.753 553.187 L
798.106 553.374 L
798.459 553.562 L
798.813 553.749 L
799.166 553.936 L
799.519 554.123 L
799.872 554.309 L
800.225 554.496 L
800.578 554.682 L
800.931 554.867 L
801.284 555.053 L
801.637 555.238 L
801.99 555.423 L
802.343 555.607 L
802.696 555.792 L
803.049 555.976 L
803.402 556.16 L
803.755 556.343 L
804.108 556.527 L
804.461 556.71 L
804.814 556.893 L
805.167 557.075 L
805.52 557.258 L
805.873 557.44 L
806.226 557.621 L
806.579 557.803 L
806.932 557.984 L
807.285 558.165 L
807.638 558.346 L
807.991 558.527 L
808.344 558.707 L
808.697 558.887 L
809.05 559.067 L
809.403 559.246 L
809.756 559.426 L
810.109 559.605 L
810.462 559.784 L
810.815 559.962 L
811.168 560.141 L
811.521 560.319 L
811.875 560.496 L
812.228 560.674 L
812.581 560.851 L
812.934 561.028 L
813.287 561.205 L
813.64 561.382 L
813.993 561.558 L
814.346 561.734 L
814.699 561.91 L
815.052 562.086 L
815.405 562.261 L
815.758 562.436 L
816.111 562.611 L
816.464 562.786 L
816.817 562.96 L
817.17 563.134 L
817.523 563.308 L
817.876 563.482 L
818.229 563.655 L
818.582 563.828 L
818.935 564.001 L
819.288 564.174 L
819.641 564.346 L
819.994 564.519 L
820.347 564.691 L
820.7 564.862 L
821.053 565.034 L
821.406 565.205 L
821.759 565.376 L
822.112 565.547 L
822.465 565.718 L
822.818 565.888 L
823.171 566.058 L
823.524 566.228 L
823.877 566.398 L
824.23 566.567 L
824.583 566.736 L
824.937 566.905 L
825.29 567.074 L
825.643 567.243 L
825.996 567.411 L
826.349 567.579 L
826.702 567.747 L
827.055 567.914 L
827.408 568.082 L
827.761 568.249 L
828.114 568.416 L
828.467 568.582 L
828.82 568.749 L
829.173 568.915 L
829.526 569.081 L
829.879 569.247 L
830.232 569.412 L
830.585 569.578 L
830.938 569.743 L
831.291 569.907 L
831.644 570.072 L
831.997 570.236 L
832.35 570.401 L
832.703 570.565 L
833.056 570.728 L
833.409 570.892 L
833.762 571.055 L
834.115 571.218 L
834.468 571.381 L
834.821 571.544 L
835.174 571.706 L
835.527 571.868 L
835.88 572.03 L
836.233 572.192 L
836.586 572.354 L
836.939 572.515 L
837.292 572.676 L
837.646 572.837 L
837.999 572.998 L
838.352 573.158 L
838.705 573.318 L
839.058 573.478 L
839.411 573.638 L
839.764 573.798 L
840.117 573.957 L
840.47 574.116 L
840.823 574.275 L
841.176 574.434 L
841.529 574.592 L
841.882 574.751 L
842.235 574.909 L
842.588 575.067 L
842.941 575.224 L
843.294 575.382 L
843.647 575.539 L
844 575.696 L
S
GR
%%Trailer
%%Pages: 1
%%EOF
